{
  "qProperty": {
    "qInfo": {
      "qId": "0edbc016-58eb-4c18-9e44-09cb202471d8",
      "qType": "sheet"
    },
    "qMetaDef": {
      "title": "Per depot randomization",
      "description": ""
    },
    "rank": 0.90625,
    "thumbnail": {
      "qStaticContentUrlDef": {
        "qUrl": "/appcontent/47d9b58b-9f1a-42fb-b391-25c4f2464e62/Patient enrollment-03.jpg"
      }
    },
    "columns": 24,
    "rows": 12,
    "cells": [
      {
        "name": "184dadbf-f546-485f-a17c-d0d7eb607704",
        "type": "swr-sense-navigation",
        "col": 0,
        "row": 11,
        "colspan": 4,
        "rowspan": 1,
        "bounds": {
          "y": 91.66666666666666,
          "x": 0,
          "width": 16.666666666666664,
          "height": 8.333333333333332
        }
      },
      {
        "name": "65d06b6e-a4b1-4ce1-afe5-80211c808d60",
        "type": "swr-sense-navigation",
        "col": 4,
        "row": 11,
        "colspan": 4,
        "rowspan": 1,
        "bounds": {
          "y": 91.66666666666666,
          "x": 16.666666666666664,
          "width": 16.666666666666664,
          "height": 8.333333333333332
        }
      },
      {
        "name": "2f7cf13e-0806-41fa-9ba5-215ba1dcf733",
        "type": "swr-sense-navigation",
        "col": 8,
        "row": 11,
        "colspan": 4,
        "rowspan": 1,
        "bounds": {
          "y": 91.66666666666666,
          "x": 33.33333333333333,
          "width": 16.666666666666664,
          "height": 8.333333333333332
        }
      },
      {
        "name": "fb07a88d-7e17-4909-b7af-c332a470c6f3",
        "type": "swr-sense-navigation",
        "col": 12,
        "row": 11,
        "colspan": 4,
        "rowspan": 1,
        "bounds": {
          "y": 91.66666666666666,
          "x": 50,
          "width": 16.666666666666664,
          "height": 8.333333333333332
        }
      },
      {
        "name": "jfCn",
        "type": "swr-sense-navigation",
        "col": 16,
        "row": 11,
        "colspan": 4,
        "rowspan": 1,
        "bounds": {
          "y": 91.66666666666666,
          "x": 66.66666666666666,
          "width": 16.666666666666664,
          "height": 8.333333333333332
        }
      },
      {
        "name": "3b3634da-7ed1-456f-a48c-86fe3c7b35f6",
        "type": "swr-sense-navigation",
        "col": 21,
        "row": 9,
        "colspan": 3,
        "rowspan": 1,
        "bounds": {
          "y": 75,
          "x": 87.5,
          "width": 12.5,
          "height": 8.333333333333332
        }
      },
      {
        "name": "ef52f7c2-ef4a-455b-93b8-11f8e5577ccf",
        "type": "swr-sense-navigation",
        "col": 21,
        "row": 10,
        "colspan": 3,
        "rowspan": 1,
        "bounds": {
          "y": 83.33333333333334,
          "x": 87.5,
          "width": 12.5,
          "height": 8.333333333333332
        }
      },
      {
        "name": "aFKcv",
        "type": "table",
        "col": 11,
        "row": 5,
        "colspan": 10,
        "rowspan": 6,
        "bounds": {
          "y": 41.66666666666667,
          "x": 45.83333333333333,
          "width": 41.66666666666667,
          "height": 50
        }
      },
      {
        "name": "jctaSj",
        "type": "text-image",
        "col": 21,
        "row": 2,
        "colspan": 3,
        "rowspan": 3,
        "bounds": {
          "y": 16.666666666666664,
          "x": 87.5,
          "width": 12.5,
          "height": 25
        }
      },
      {
        "name": "tvshAF",
        "type": "kpi",
        "col": 21,
        "row": 0,
        "colspan": 3,
        "rowspan": 1,
        "bounds": {
          "y": 0,
          "x": 87.5,
          "width": 12.5,
          "height": 8.333333333333332
        }
      },
      {
        "name": "msDWkJ",
        "type": "kpi",
        "col": 21,
        "row": 1,
        "colspan": 3,
        "rowspan": 1,
        "bounds": {
          "y": 8.333333333333332,
          "x": 87.5,
          "width": 12.5,
          "height": 8.333333333333332
        }
      },
      {
        "name": "pnfEEDd",
        "type": "linechart",
        "col": 0,
        "row": 0,
        "colspan": 21,
        "rowspan": 5,
        "bounds": {
          "y": 0,
          "x": 0,
          "width": 87.5,
          "height": 41.66666666666667
        }
      },
      {
        "name": "SapabD",
        "type": "map",
        "col": 0,
        "row": 5,
        "colspan": 11,
        "rowspan": 6,
        "bounds": {
          "y": 41.66666666666667,
          "x": 0,
          "width": 45.83333333333333,
          "height": 50
        }
      },
      {
        "name": "mJKJy",
        "type": "table",
        "col": 21,
        "row": 5,
        "colspan": 3,
        "rowspan": 4,
        "bounds": {
          "y": 41.66666666666667,
          "x": 87.5,
          "width": 12.5,
          "height": 33.33333333333333
        }
      },
      {
        "name": "jSDHz",
        "type": "swr-sense-navigation",
        "col": 20,
        "row": 11,
        "colspan": 4,
        "rowspan": 1,
        "bounds": {
          "y": 91.66666666666666,
          "x": 83.33333333333334,
          "width": 16.666666666666664,
          "height": 8.333333333333332
        }
      }
    ],
    "qChildListDef": {
      "qData": {
        "title": "/title"
      }
    },
    "gridResolution": "small"
  },
  "qChildren": [
    {
      "qProperty": {
        "qInfo": {
          "qId": "184dadbf-f546-485f-a17c-d0d7eb607704",
          "qType": "swr-sense-navigation"
        },
        "qMetaDef": {},
        "showTitles": false,
        "title": "",
        "subtitle": "",
        "footnote": "",
        "showDetails": false,
        "props": {
          "buttonLabel": "Welcome",
          "buttonStyle": "primary",
          "fullWidth": true,
          "buttonAlign": "left",
          "buttonIcon": "",
          "action": "gotoSheet",
          "sheetId": "",
          "selectedSheet": "5c03ee6a-cd5c-448b-b413-0ccd7a0707b3",
          "selectedStory": "",
          "websiteUrl": "",
          "isActionsBefore": false,
          "actionBefore1": "none",
          "field1": "",
          "variable1": "",
          "value1": "",
          "bookmark1": "",
          "actionBefore2": "none",
          "field2": "",
          "variable2": "",
          "value2": "",
          "bookmark2": ""
        },
        "visualization": "swr-sense-navigation",
        "version": "0.5.8",
        "extensionMeta": {
          "translationKey": "",
          "icon": "puzzle",
          "iconChar": "g",
          "isLibraryItem": true,
          "visible": true,
          "name": "Sheet Navigation & Actions",
          "description": "Sense Sheet Navigation + Actions visualization extension for Qlik Sense.",
          "template": "swr-sense-navigation",
          "isThirdParty": true,
          "type": "visualization",
          "version": "0.5.8",
          "preview": "swr-sense-navigation.png",
          "author": "Stefan Walther",
          "license": "MIT",
          "homepage": "http://github.com/stefanwalther/sense-navigation",
          "keywords": "qlik-sense, visualization",
          "repository": "https://github.com/stefanwalther/sense-navigation",
          "dependencies": {
            "qlik-sense": ">=2.1.1"
          },
          "previewIconURL": "../extensions/swr-sense-navigation/swr-sense-navigation.png"
        }
      },
      "qChildren": []
    },
    {
      "qProperty": {
        "qInfo": {
          "qId": "65d06b6e-a4b1-4ce1-afe5-80211c808d60",
          "qType": "swr-sense-navigation"
        },
        "qMetaDef": {},
        "showTitles": false,
        "title": "",
        "subtitle": "",
        "footnote": "",
        "showDetails": false,
        "props": {
          "buttonLabel": "Overview",
          "buttonStyle": "info",
          "fullWidth": true,
          "buttonAlign": "left",
          "buttonIcon": "",
          "action": "gotoSheet",
          "sheetId": "",
          "selectedSheet": "ddcbdf0d-9227-404e-988b-cfd597afa362",
          "selectedStory": "",
          "websiteUrl": "",
          "isActionsBefore": false,
          "actionBefore1": "none",
          "field1": "",
          "variable1": "",
          "value1": "",
          "bookmark1": "",
          "actionBefore2": "none",
          "field2": "",
          "variable2": "",
          "value2": "",
          "bookmark2": ""
        },
        "visualization": "swr-sense-navigation",
        "version": "0.5.8",
        "extensionMeta": {
          "translationKey": "",
          "icon": "puzzle",
          "iconChar": "g",
          "isLibraryItem": true,
          "visible": true,
          "name": "Sheet Navigation & Actions",
          "description": "Sense Sheet Navigation + Actions visualization extension for Qlik Sense.",
          "template": "swr-sense-navigation",
          "isThirdParty": true,
          "type": "visualization",
          "version": "0.5.8",
          "preview": "swr-sense-navigation.png",
          "author": "Stefan Walther",
          "license": "MIT",
          "homepage": "http://github.com/stefanwalther/sense-navigation",
          "keywords": "qlik-sense, visualization",
          "repository": "https://github.com/stefanwalther/sense-navigation",
          "dependencies": {
            "qlik-sense": ">=2.1.1"
          },
          "previewIconURL": "../extensions/swr-sense-navigation/swr-sense-navigation.png"
        }
      },
      "qChildren": []
    },
    {
      "qProperty": {
        "qInfo": {
          "qId": "2f7cf13e-0806-41fa-9ba5-215ba1dcf733",
          "qType": "swr-sense-navigation"
        },
        "qMetaDef": {},
        "showTitles": false,
        "title": "",
        "subtitle": "",
        "footnote": "",
        "showDetails": false,
        "props": {
          "buttonLabel": "Dispensing analysis",
          "buttonStyle": "info",
          "fullWidth": true,
          "buttonAlign": "left",
          "buttonIcon": "",
          "action": "gotoSheet",
          "sheetId": "",
          "selectedSheet": "f74e4507-c811-4033-8cdf-efd423214bad",
          "selectedStory": "",
          "websiteUrl": "",
          "isActionsBefore": false,
          "actionBefore1": "none",
          "field1": "",
          "variable1": "",
          "value1": "",
          "bookmark1": "",
          "actionBefore2": "none",
          "field2": "",
          "variable2": "",
          "value2": "",
          "bookmark2": ""
        },
        "visualization": "swr-sense-navigation",
        "version": "0.5.8",
        "extensionMeta": {
          "translationKey": "",
          "icon": "puzzle",
          "iconChar": "g",
          "isLibraryItem": true,
          "visible": true,
          "name": "Sheet Navigation & Actions",
          "description": "Sense Sheet Navigation + Actions visualization extension for Qlik Sense.",
          "template": "swr-sense-navigation",
          "isThirdParty": true,
          "type": "visualization",
          "version": "0.5.8",
          "preview": "swr-sense-navigation.png",
          "author": "Stefan Walther",
          "license": "MIT",
          "homepage": "http://github.com/stefanwalther/sense-navigation",
          "keywords": "qlik-sense, visualization",
          "repository": "https://github.com/stefanwalther/sense-navigation",
          "dependencies": {
            "qlik-sense": ">=2.1.1"
          },
          "previewIconURL": "../extensions/swr-sense-navigation/swr-sense-navigation.png"
        }
      },
      "qChildren": []
    },
    {
      "qProperty": {
        "qInfo": {
          "qId": "fb07a88d-7e17-4909-b7af-c332a470c6f3",
          "qType": "swr-sense-navigation"
        },
        "qMetaDef": {},
        "showTitles": false,
        "title": "",
        "subtitle": "",
        "footnote": "",
        "showDetails": false,
        "props": {
          "buttonLabel": "Randomization analysis",
          "buttonStyle": "default",
          "fullWidth": true,
          "buttonAlign": "left",
          "buttonIcon": "",
          "action": "gotoSheet",
          "sheetId": "",
          "selectedSheet": "b5f6563f-dd71-45af-aef9-87d680d1f245",
          "selectedStory": "",
          "websiteUrl": "",
          "isActionsBefore": false,
          "actionBefore1": "none",
          "field1": "",
          "variable1": "",
          "value1": "",
          "bookmark1": "",
          "actionBefore2": "none",
          "field2": "",
          "variable2": "",
          "value2": "",
          "bookmark2": ""
        },
        "visualization": "swr-sense-navigation",
        "version": "0.5.8",
        "extensionMeta": {
          "translationKey": "",
          "icon": "puzzle",
          "iconChar": "g",
          "isLibraryItem": true,
          "visible": true,
          "name": "Sheet Navigation & Actions",
          "description": "Sense Sheet Navigation + Actions visualization extension for Qlik Sense.",
          "template": "swr-sense-navigation",
          "isThirdParty": true,
          "type": "visualization",
          "version": "0.5.8",
          "preview": "swr-sense-navigation.png",
          "author": "Stefan Walther",
          "license": "MIT",
          "homepage": "http://github.com/stefanwalther/sense-navigation",
          "keywords": "qlik-sense, visualization",
          "repository": "https://github.com/stefanwalther/sense-navigation",
          "dependencies": {
            "qlik-sense": ">=2.1.1"
          },
          "previewIconURL": "../extensions/swr-sense-navigation/swr-sense-navigation.png"
        }
      },
      "qChildren": []
    },
    {
      "qProperty": {
        "qInfo": {
          "qId": "msDWkJ",
          "qType": "kpi"
        },
        "qMetaDef": {},
        "qHyperCubeDef": {
          "qDimensions": [],
          "qMeasures": [
            {
              "qDef": {
                "qLabel": "Extract date",
                "qTags": [],
                "qGrouping": "N",
                "qDef": "date([Extract date],'DD-MMM-YY')\r\n\n\t//** The aggregation Only() is useful to put the condition {1}\n\t\t//** We use {1} to freeze the date even if we select another date",
                "qNumFormat": {
                  "qType": "U",
                  "qnDec": 10,
                  "qUseThou": 0
                },
                "qAccumulate": 0,
                "qActiveExpression": 0,
                "qExpressions": [],
                "autoSort": true,
                "cId": "uRAzT",
                "numFormatFromTemplate": true,
                "measureAxis": {
                  "min": 0,
                  "max": 100
                },
                "conditionalColoring": {
                  "useConditionalColoring": false,
                  "singleColor": 3,
                  "paletteSingleColor": {
                    "index": -1,
                    "color": "#00acc2"
                  },
                  "segments": {
                    "limits": [],
                    "paletteColors": [
                      {
                        "index": 6
                      }
                    ]
                  }
                }
              },
              "qSortBy": {
                "qSortByNumeric": -1,
                "qSortByLoadOrder": 1,
                "qExpression": {}
              },
              "qAttributeExpressions": [],
              "qAttributeDimensions": [],
              "qCalcCond": {},
              "qCalcCondition": {
                "qCond": {},
                "qMsg": {}
              }
            }
          ],
          "qInterColumnSortOrder": [
            0
          ],
          "qSuppressMissing": true,
          "qInitialDataFetch": [
            {
              "qLeft": 0,
              "qTop": 0,
              "qWidth": 500,
              "qHeight": 10
            }
          ],
          "qReductionMode": "N",
          "qMode": "S",
          "qPseudoDimPos": -1,
          "qNoOfLeftDims": -1,
          "qMaxStackedCells": 5000,
          "qCalcCond": {},
          "qTitle": {},
          "qCalcCondition": {
            "qCond": {},
            "qMsg": {}
          },
          "qColumnOrder": [],
          "qLayoutExclude": {
            "qHyperCubeDef": {
              "qDimensions": [],
              "qMeasures": [],
              "qInterColumnSortOrder": [],
              "qInitialDataFetch": [],
              "qReductionMode": "N",
              "qMode": "S",
              "qPseudoDimPos": -1,
              "qNoOfLeftDims": -1,
              "qMaxStackedCells": 5000,
              "qCalcCond": {},
              "qTitle": {},
              "qCalcCondition": {
                "qCond": {},
                "qMsg": {}
              },
              "qColumnOrder": []
            }
          }
        },
        "showTitles": false,
        "title": "",
        "subtitle": "",
        "footnote": "",
        "showDetails": false,
        "showMeasureTitle": true,
        "textAlign": "center",
        "fontSize": "M",
        "useLink": false,
        "sheetLink": "",
        "openUrlInNewTab": true,
        "visualization": "kpi",
        "color": {
          "useBaseColors": "measure"
        }
      },
      "qChildren": []
    },
    {
      "qProperty": {
        "qInfo": {
          "qId": "3b3634da-7ed1-456f-a48c-86fe3c7b35f6",
          "qType": "swr-sense-navigation"
        },
        "qMetaDef": {},
        "showTitles": false,
        "title": "",
        "subtitle": "",
        "footnote": "",
        "showDetails": false,
        "props": {
          "buttonLabel": "Global randomization",
          "buttonStyle": "info",
          "fullWidth": true,
          "buttonAlign": "left",
          "buttonIcon": "",
          "action": "gotoSheet",
          "sheetId": "",
          "selectedSheet": "b5f6563f-dd71-45af-aef9-87d680d1f245",
          "selectedStory": "",
          "websiteUrl": "",
          "isActionsBefore": false,
          "actionBefore1": "none",
          "field1": "",
          "variable1": "",
          "value1": "",
          "bookmark1": "",
          "actionBefore2": "none",
          "field2": "",
          "variable2": "",
          "value2": "",
          "bookmark2": ""
        },
        "visualization": "swr-sense-navigation",
        "version": "0.5.8",
        "extensionMeta": {
          "translationKey": "",
          "icon": "puzzle",
          "iconChar": "g",
          "isLibraryItem": true,
          "visible": true,
          "name": "Sheet Navigation & Actions",
          "description": "Sense Sheet Navigation + Actions visualization extension for Qlik Sense.",
          "template": "swr-sense-navigation",
          "isThirdParty": true,
          "type": "visualization",
          "version": "0.5.8",
          "preview": "swr-sense-navigation.png",
          "author": "Stefan Walther",
          "license": "MIT",
          "homepage": "http://github.com/stefanwalther/sense-navigation",
          "keywords": "qlik-sense, visualization",
          "repository": "https://github.com/stefanwalther/sense-navigation",
          "dependencies": {
            "qlik-sense": ">=2.1.1"
          },
          "previewIconURL": "../extensions/swr-sense-navigation/swr-sense-navigation.png"
        }
      },
      "qChildren": []
    },
    {
      "qProperty": {
        "qInfo": {
          "qId": "ef52f7c2-ef4a-455b-93b8-11f8e5577ccf",
          "qType": "swr-sense-navigation"
        },
        "qMetaDef": {},
        "showTitles": false,
        "title": "",
        "subtitle": "",
        "footnote": "",
        "showDetails": false,
        "props": {
          "buttonLabel": "Local randomization",
          "buttonStyle": "default",
          "fullWidth": true,
          "buttonAlign": "left",
          "buttonIcon": "",
          "action": "gotoSheet",
          "sheetId": "",
          "selectedSheet": "0edbc016-58eb-4c18-9e44-09cb202471d8",
          "selectedStory": "",
          "websiteUrl": "",
          "isActionsBefore": false,
          "actionBefore1": "none",
          "field1": "",
          "variable1": "",
          "value1": "",
          "bookmark1": "",
          "actionBefore2": "none",
          "field2": "",
          "variable2": "",
          "value2": "",
          "bookmark2": ""
        },
        "visualization": "swr-sense-navigation",
        "version": "0.5.8",
        "extensionMeta": {
          "translationKey": "",
          "icon": "puzzle",
          "iconChar": "g",
          "isLibraryItem": true,
          "visible": true,
          "name": "Sheet Navigation & Actions",
          "description": "Sense Sheet Navigation + Actions visualization extension for Qlik Sense.",
          "template": "swr-sense-navigation",
          "isThirdParty": true,
          "type": "visualization",
          "version": "0.5.8",
          "preview": "swr-sense-navigation.png",
          "author": "Stefan Walther",
          "license": "MIT",
          "homepage": "http://github.com/stefanwalther/sense-navigation",
          "keywords": "qlik-sense, visualization",
          "repository": "https://github.com/stefanwalther/sense-navigation",
          "dependencies": {
            "qlik-sense": ">=2.1.1"
          },
          "previewIconURL": "../extensions/swr-sense-navigation/swr-sense-navigation.png"
        }
      },
      "qChildren": []
    },
    {
      "qProperty": {
        "qInfo": {
          "qId": "SapabD",
          "qType": "map"
        },
        "qMetaDef": {},
        "gaLayers": [
          {
            "type": "AreaLayer",
            "locationOrLatitude": {
              "label": "GeoReduceGeometry([world.Area])",
              "key": "=GeoReduceGeometry({1}[world.Area])",
              "type": "expression"
            },
            "locationDefault": "",
            "locationNamesAuto": true,
            "locationType": "",
            "locationCountry": {
              "key": "",
              "label": "",
              "type": ""
            },
            "locationAdmin1": {
              "key": "",
              "label": "",
              "type": ""
            },
            "locationAdmin2": {
              "key": "",
              "label": "",
              "type": ""
            },
            "maxObjects": 3333,
            "showLayer": true,
            "color": {
              "auto": false,
              "mode": "byExpression",
              "useBaseColors": "off",
              "paletteColor": {
                "index": 6
              },
              "useDimColVal": true,
              "persistent": false,
              "expressionIsColor": true,
              "expressionLabel": "",
              "measureScheme": "sg",
              "reverseScheme": false,
              "dimensionScheme": "12",
              "autoMinMax": true,
              "measureMin": 0,
              "measureMax": 10,
              "colorExpression": "only({1}\r\nif([E.Local_Icon] = '▲ Over recruitment',rgb(215,25,28),\nif([E.Local_Icon] = '▼ Under recruitment',rgb(215,25,28),\n   if([E.Local_Icon] = '▲ Faster trend', rgb(244,167,79),  \n   if([E.Local_Icon] = '▼ Slower trend', rgb(244,167,79),\n      if([E.Local_Icon] = '○ Within bounds', rgb(140,187,19) \n        )\n     )\n  )\n)))\n\n\t//** The map is useful to identify the situation in countries that have randomized patient(s) \n    //** We use {1} to freeze the color at the ExtractDate even if we select another date\n    \n    //** Rules to color the background of the Depots in section 'E.Local KPI'\n",
              "outline": {
                "index": -1,
                "color": "#7b7a78"
              },
              "opacity": 1,
              "outlineOpacity": 1,
              "useMeasureGradient": false,
              "byMeasureDef": {
                "label": "",
                "key": "",
                "type": "expression"
              },
              "altLabel": "Country",
              "byDimDef": {
                "label": "Country",
                "key": "=if([Warehouse level] = 'depot'\r\n,if(RL.Color='RED',rgb(215,25,28),  \n   if(RL.Color='ORANGE', rgb(244,167,79),  \n      if(RL.Color='GREEN', rgb(140,187,19) \n        )\n     )\n  )\n)",
                "type": "expression"
              }
            },
            "displayLegend": "auto",
            "showToolTip": true,
            "showInAllLevels": true,
            "zoomRange": [
              0,
              20
            ],
            "showPopUp": true,
            "displayUnselected": false,
            "label": {
              "show": false,
              "expression": {
                "key": "[Country Label]",
                "label": "dimension.qDef.qFieldDefs[0]",
                "type": "expression"
              },
              "position": "TOP",
              "showInAllLevels": true,
              "visibleRange": [
                0,
                20
              ]
            },
            "drillDown": {
              "auto": true,
              "showLevel0": true,
              "showLevel1": true,
              "showLevel2": true,
              "showLevel3": true,
              "showLevel4": true,
              "showLevel5": true,
              "showLevel6": true,
              "showLevel7": true
            },
            "qHyperCubeDef": {
              "qDimensions": [
                {
                  "qDef": {
                    "qGrouping": "N",
                    "qFieldDefs": [
                      "=[Country label]"
                    ],
                    "qFieldLabels": [
                      "Country"
                    ],
                    "qSortCriterias": [
                      {
                        "qSortByNumeric": 1,
                        "qSortByAscii": 1,
                        "qSortByLoadOrder": 1,
                        "qExpression": {}
                      }
                    ],
                    "qNumberPresentations": [],
                    "qActiveField": 0,
                    "autoSort": true,
                    "cId": "eyjjN"
                  },
                  "qOtherTotalSpec": {
                    "qOtherMode": "OTHER_OFF",
                    "qOtherCounted": {},
                    "qOtherLimit": {},
                    "qOtherLimitMode": "OTHER_GT_LIMIT",
                    "qForceBadValueKeeping": true,
                    "qApplyEvenWhenPossiblyWrongResult": true,
                    "qOtherSortMode": "OTHER_SORT_DESCENDING",
                    "qTotalMode": "TOTAL_OFF",
                    "qReferencedExpression": {}
                  },
                  "qOtherLabel": {},
                  "qTotalLabel": {},
                  "qCalcCond": {},
                  "qAttributeExpressions": [
                    {
                      "qExpression": "only({1}\r\nif([E.Local_Icon] = '▲ Over recruitment',rgb(215,25,28),\nif([E.Local_Icon] = '▼ Under recruitment',rgb(215,25,28),\n   if([E.Local_Icon] = '▲ Faster trend', rgb(244,167,79),  \n   if([E.Local_Icon] = '▼ Slower trend', rgb(244,167,79),\n      if([E.Local_Icon] = '○ Within bounds', rgb(140,187,19) \n        )\n     )\n  )\n)))\n\n\t//** The map is useful to identify the situation in countries that have randomized patient(s) \n    //** We use {1} to freeze the color at the ExtractDate even if we select another date\n    \n    //** Rules to color the background of the Depots in section 'E.Local KPI'\n",
                      "id": "colorByExpression"
                    }
                  ],
                  "qAttributeDimensions": [],
                  "qCalcCondition": {
                    "qCond": {},
                    "qMsg": {}
                  }
                }
              ],
              "qMeasures": [],
              "qInterColumnSortOrder": [
                0
              ],
              "qInitialDataFetch": [],
              "qReductionMode": "N",
              "qMode": "S",
              "qPseudoDimPos": -1,
              "qNoOfLeftDims": -1,
              "qMaxStackedCells": 5000,
              "qCalcCond": {},
              "qTitle": {},
              "qCalcCondition": {
                "qCond": {},
                "qMsg": {}
              },
              "qColumnOrder": [],
              "qLayoutExclude": {
                "qHyperCubeDef": {
                  "qDimensions": [],
                  "qMeasures": [],
                  "qInterColumnSortOrder": [],
                  "qInitialDataFetch": [],
                  "qReductionMode": "N",
                  "qMode": "S",
                  "qPseudoDimPos": -1,
                  "qNoOfLeftDims": -1,
                  "qMaxStackedCells": 5000,
                  "qCalcCond": {},
                  "qTitle": {},
                  "qCalcCondition": {
                    "qCond": {},
                    "qMsg": {}
                  },
                  "qColumnOrder": []
                }
              }
            },
            "cId": "MIGRATED"
          }
        ],
        "mapSettings": {
          "_layerType": "",
          "baseMap": "empty",
          "projection": "emptydegreemercator",
          "mapLanguage": "auto",
          "useImperialUnits": false,
          "selectionType": "lasso",
          "initialView": null,
          "showLegend": false,
          "sidebarAlignment": "auto",
          "showScaleBar": false,
          "zoomLimitSwitch": false,
          "zoomLimit": {
            "range": [
              0,
              20
            ]
          },
          "panLimitSwitch": false,
          "panLimits": null,
          "showDebugInfo": false
        },
        "autoZoomOnSelection": true,
        "showTitles": true,
        "title": "Depots in which patients have already been randomized",
        "subtitle": "",
        "footnote": "* Only depots with a valid associated ISO code are displayed",
        "showDetails": false,
        "navigation": false,
        "visualization": "map",
        "gaVersion": 2,
        "layers": [
          {
            "type": "polygon",
            "version": "3",
            "cId": "jYaEB",
            "show": true,
            "qHyperCubeDef": {
              "qDimensions": [
                {
                  "qDef": {
                    "qGrouping": "N",
                    "qFieldDefs": [
                      "Country Code"
                    ],
                    "qFieldLabels": [
                      ""
                    ],
                    "qSortCriterias": [
                      {
                        "qSortByState": 1,
                        "qSortByNumeric": 1,
                        "qSortByAscii": 1,
                        "qSortByLoadOrder": 1,
                        "qExpression": {}
                      }
                    ],
                    "qNumberPresentations": [],
                    "qActiveField": 0,
                    "cId": "rCuRFj"
                  },
                  "qOtherTotalSpec": {
                    "qOtherMode": "OTHER_OFF",
                    "qOtherCounted": {},
                    "qOtherLimit": {},
                    "qOtherLimitMode": "OTHER_GT_LIMIT",
                    "qForceBadValueKeeping": true,
                    "qApplyEvenWhenPossiblyWrongResult": true,
                    "qOtherSortMode": "OTHER_SORT_DESCENDING",
                    "qTotalMode": "TOTAL_OFF",
                    "qReferencedExpression": {}
                  },
                  "qOtherLabel": {},
                  "qTotalLabel": {},
                  "qCalcCond": {},
                  "qAttributeExpressions": [
                    {
                      "qExpression": "if(color='RED',rgb(215,25,28), \nif(color='ORANGE', rgb(244,167,79), \nif(color='GREEN', rgb(140,187,19) )))",
                      "id": "colorByExpression"
                    }
                  ],
                  "qAttributeDimensions": [],
                  "qCalcCondition": {
                    "qCond": {},
                    "qMsg": {}
                  }
                }
              ],
              "qMeasures": [],
              "qInterColumnSortOrder": [
                0
              ],
              "qInitialDataFetch": [
                {
                  "qLeft": 0,
                  "qTop": 0,
                  "qWidth": 2,
                  "qHeight": 3333
                }
              ],
              "qReductionMode": "N",
              "qMode": "S",
              "qPseudoDimPos": -1,
              "qNoOfLeftDims": -1,
              "qMaxStackedCells": 5000,
              "qCalcCond": {},
              "qTitle": {},
              "qCalcCondition": {
                "qCond": {},
                "qMsg": {}
              },
              "qColumnOrder": []
            },
            "geodata": {
              "qHyperCubeDef": {
                "qDimensions": [
                  {
                    "qDef": {
                      "qGrouping": "N",
                      "qFieldDefs": [
                        "Country Code"
                      ],
                      "qFieldLabels": [
                        ""
                      ],
                      "qSortCriterias": [
                        {
                          "qSortByState": 1,
                          "qSortByNumeric": 1,
                          "qSortByAscii": 1,
                          "qSortByLoadOrder": 1,
                          "qExpression": {}
                        }
                      ],
                      "qNumberPresentations": [],
                      "qActiveField": 0,
                      "cId": "XWhmh"
                    },
                    "qOtherTotalSpec": {
                      "qOtherMode": "OTHER_OFF",
                      "qOtherCounted": {},
                      "qOtherLimit": {},
                      "qOtherLimitMode": "OTHER_GT_LIMIT",
                      "qForceBadValueKeeping": true,
                      "qApplyEvenWhenPossiblyWrongResult": true,
                      "qOtherSortMode": "OTHER_SORT_DESCENDING",
                      "qTotalMode": "TOTAL_OFF",
                      "qReferencedExpression": {}
                    },
                    "qOtherLabel": {},
                    "qTotalLabel": {},
                    "qCalcCond": {},
                    "qAttributeExpressions": [],
                    "qAttributeDimensions": [],
                    "qCalcCondition": {
                      "qCond": {},
                      "qMsg": {}
                    }
                  }
                ],
                "qMeasures": [
                  {
                    "qDef": {
                      "qLabel": "GeoReduceGeometry({1}[world.Area])",
                      "qTags": [],
                      "qGrouping": "N",
                      "qDef": "GeoReduceGeometry({1}[world.Area])",
                      "qNumFormat": {
                        "qType": "U",
                        "qnDec": 10,
                        "qUseThou": 0
                      },
                      "qAggrFunc": "None",
                      "qAccumulate": 0,
                      "qActiveExpression": 0,
                      "qExpressions": [],
                      "autoSort": true,
                      "projection": ""
                    },
                    "qSortBy": {
                      "qSortByNumeric": -1,
                      "qSortByLoadOrder": 1,
                      "qExpression": {}
                    },
                    "qAttributeExpressions": [],
                    "qAttributeDimensions": [],
                    "qCalcCond": {},
                    "qCalcCondition": {
                      "qCond": {},
                      "qMsg": {}
                    }
                  }
                ],
                "qInterColumnSortOrder": [],
                "qInitialDataFetch": [],
                "qReductionMode": "N",
                "qMode": "S",
                "qPseudoDimPos": -1,
                "qNoOfLeftDims": -1,
                "qMaxStackedCells": 5000,
                "qCalcCond": {},
                "qTitle": {},
                "qCalcCondition": {
                  "qCond": {},
                  "qMsg": {}
                },
                "qColumnOrder": []
              }
            },
            "measureDef": ""
          }
        ],
        "background": {
          "show": false,
          "defaultMapService": true,
          "layers": [
            {
              "type": "XYZ",
              "urls": [
                ""
              ],
              "attribution": ""
            }
          ]
        },
        "color": {
          "auto": true,
          "mode": "primary",
          "useBaseColors": "off",
          "paletteColor": {
            "index": 6
          },
          "useDimColVal": true,
          "persistent": false,
          "expressionIsColor": true,
          "expressionLabel": "",
          "measureScheme": "sg",
          "reverseScheme": false,
          "dimensionScheme": "12",
          "autoMinMax": true,
          "measureMin": 0,
          "measureMax": 10,
          "colorExpression": "if(color='RED',rgb(215,25,28), \nif(color='ORANGE', rgb(244,167,79), \nif(color='GREEN', rgb(140,187,19) )))"
        },
        "legend": {
          "show": true,
          "dock": "auto",
          "showTitle": true
        },
        "qUndoExclude": {
          "hashCode": 1473830845,
          "gaLayers": [
            {
              "qHyperCubeDef": {
                "qDimensions": [
                  {
                    "qDef": {
                      "qGrouping": "N",
                      "qFieldDefs": [
                        "=[Country label]"
                      ],
                      "qFieldLabels": [
                        "Country"
                      ],
                      "qSortCriterias": [
                        {
                          "qSortByNumeric": 1,
                          "qSortByAscii": 1,
                          "qSortByLoadOrder": 1,
                          "qExpression": {}
                        }
                      ],
                      "qNumberPresentations": [],
                      "qActiveField": 0,
                      "autoSort": true,
                      "cId": "eyjjN"
                    },
                    "qOtherTotalSpec": {
                      "qOtherMode": "OTHER_OFF",
                      "qOtherCounted": {},
                      "qOtherLimit": {},
                      "qOtherLimitMode": "OTHER_GT_LIMIT",
                      "qForceBadValueKeeping": true,
                      "qApplyEvenWhenPossiblyWrongResult": true,
                      "qOtherSortMode": "OTHER_SORT_DESCENDING",
                      "qTotalMode": "TOTAL_OFF",
                      "qReferencedExpression": {}
                    },
                    "qOtherLabel": {},
                    "qTotalLabel": {},
                    "qCalcCond": {},
                    "qAttributeExpressions": [
                      {
                        "qExpression": "only({1}\r\nif([E.Local_Icon] = '▲ Over recruitment',rgb(215,25,28),\nif([E.Local_Icon] = '▼ Under recruitment',rgb(215,25,28),\n   if([E.Local_Icon] = '▲ Faster trend', rgb(244,167,79),  \n   if([E.Local_Icon] = '▼ Slower trend', rgb(244,167,79),\n      if([E.Local_Icon] = '○ Within bounds', rgb(140,187,19) \n        )\n     )\n  )\n)))\n\n\t//** The map is useful to identify the situation in countries that have randomized patient(s) \n    //** We use {1} to freeze the color at the ExtractDate even if we select another date\n    \n    //** Rules to color the background of the Depots in section 'E.Local KPI'\n",
                        "id": "colorByExpression"
                      },
                      {
                        "qExpression": "=GeoReduceGeometry({1}[world.Area])",
                        "id": "locationOrLatitude"
                      }
                    ],
                    "qAttributeDimensions": [],
                    "qCalcCondition": {
                      "qCond": {},
                      "qMsg": {}
                    }
                  }
                ],
                "qMeasures": [],
                "qInterColumnSortOrder": [
                  0
                ],
                "qInitialDataFetch": [
                  {
                    "qLeft": 0,
                    "qTop": 0,
                    "qWidth": 1,
                    "qHeight": 1000
                  }
                ],
                "qReductionMode": "N",
                "qMode": "S",
                "qPseudoDimPos": -1,
                "qNoOfLeftDims": -1,
                "qMaxStackedCells": 5000,
                "qCalcCond": {},
                "qTitle": {},
                "qCalcCondition": {
                  "qCond": {},
                  "qMsg": {}
                },
                "qColumnOrder": [],
                "qLayoutExclude": {
                  "qHyperCubeDef": {
                    "qDimensions": [],
                    "qMeasures": [],
                    "qInterColumnSortOrder": [],
                    "qInitialDataFetch": [],
                    "qReductionMode": "N",
                    "qMode": "S",
                    "qPseudoDimPos": -1,
                    "qNoOfLeftDims": -1,
                    "qMaxStackedCells": 5000,
                    "qCalcCond": {},
                    "qTitle": {},
                    "qCalcCondition": {
                      "qCond": {},
                      "qMsg": {}
                    },
                    "qColumnOrder": []
                  }
                }
              },
              "color": {
                "auto": false,
                "mode": "byExpression",
                "useBaseColors": "off",
                "paletteColor": {
                  "index": 6
                },
                "useDimColVal": true,
                "persistent": false,
                "expressionIsColor": true,
                "expressionLabel": "",
                "measureScheme": "sg",
                "reverseScheme": false,
                "dimensionScheme": "12",
                "autoMinMax": true,
                "measureMin": 0,
                "measureMax": 10,
                "colorExpression": "only({1}\r\nif([E.Local_Icon] = '▲ Over recruitment',rgb(215,25,28),\nif([E.Local_Icon] = '▼ Under recruitment',rgb(215,25,28),\n   if([E.Local_Icon] = '▲ Faster trend', rgb(244,167,79),  \n   if([E.Local_Icon] = '▼ Slower trend', rgb(244,167,79),\n      if([E.Local_Icon] = '○ Within bounds', rgb(140,187,19) \n        )\n     )\n  )\n)))\n\n\t//** The map is useful to identify the situation in countries that have randomized patient(s) \n    //** We use {1} to freeze the color at the ExtractDate even if we select another date\n    \n    //** Rules to color the background of the Depots in section 'E.Local KPI'\n",
                "outline": {
                  "index": -1,
                  "color": "#7b7a78"
                },
                "opacity": 1,
                "outlineOpacity": 1,
                "useMeasureGradient": false,
                "byMeasureDef": {
                  "label": "",
                  "key": "",
                  "type": "expression"
                },
                "altLabel": "Country",
                "byDimDef": {
                  "label": "Country",
                  "key": "=if([Warehouse level] = 'depot'\r\n,if(RL.Color='RED',rgb(215,25,28),  \n   if(RL.Color='ORANGE', rgb(244,167,79),  \n      if(RL.Color='GREEN', rgb(140,187,19) \n        )\n     )\n  )\n)",
                  "type": "expression"
                }
              }
            }
          ]
        }
      },
      "qChildren": []
    },
    {
      "qProperty": {
        "qInfo": {
          "qId": "aFKcv",
          "qType": "table"
        },
        "qMetaDef": {},
        "qHyperCubeDef": {
          "qDimensions": [
            {
              "qDef": {
                "qGrouping": "N",
                "qFieldDefs": [
                  "= Depot\r\n\n"
                ],
                "qFieldLabels": [
                  "Depot"
                ],
                "qSortCriterias": [
                  {
                    "qSortByLoadOrder": 1,
                    "qSortByExpression": 1,
                    "qExpression": {
                      "qv": "FABS (\r\nOnly({$<[Enrollment date]=>}[E. Number of patients])\n-\nOnly({$<[Enrollment date]=>}[E. Int. (Mean)])\n)"
                    }
                  }
                ],
                "qNumberPresentations": [],
                "qActiveField": 0,
                "autoSort": false,
                "cId": "YmXwWG",
                "othersLabel": "Others",
                "textAlign": {
                  "auto": true,
                  "align": "left"
                },
                "representation": {
                  "type": "text",
                  "urlLabel": ""
                }
              },
              "qNullSuppression": true,
              "qOtherTotalSpec": {
                "qOtherMode": "OTHER_OFF",
                "qOtherCounted": {
                  "qv": "10"
                },
                "qOtherLimit": {
                  "qv": "0"
                },
                "qOtherLimitMode": "OTHER_GT_LIMIT",
                "qSuppressOther": true,
                "qForceBadValueKeeping": true,
                "qApplyEvenWhenPossiblyWrongResult": true,
                "qOtherSortMode": "OTHER_SORT_DESCENDING",
                "qTotalMode": "TOTAL_OFF",
                "qReferencedExpression": {}
              },
              "qOtherLabel": {
                "qv": "Others"
              },
              "qTotalLabel": {
                "qv": "Totals"
              },
              "qCalcCond": {},
              "qAttributeExpressions": [
                {
                  "qExpression": "if('$(vReevaluationDate)' = '$(ExtractDate)', RGB(140,187,19) //Green\r\n  ,if(Only({1}[E. Number of patients])      >\t     Only({1}[E. Step (Max)])      \n         or       \n \t Only({1}[E. Number of patients])      <        Only({1}[E. Step (Min)])\n          ,RGB(215,25,28),//Red\n  if(Only({1}[E. Number of patients])      >\t\t Only({1}[E. Int. (Min)])\t\n\t     and \n     Only({1}[E. Number of patients])      <\t\t Only({1}[E. Int. (Max)])\n          ,RGB(140,187,19),//Green\n  if(Only({1}[E. Int. (Max)])       \t   =       Only({1}[E. Int. (Min)]) \n         and \n     Only({1}[E. Int. (Min)])              =       Only({1}[E. Number of patients])\n          ,RGB(140,187,19) //Green\n          ,RGB(253,174,97) //Orange\n     ))))  \n     \n\n\n\t//** Rules to color the background of Depots\n    //** We use {1} to freeze the color at the ExtractDate event if we select another date\n    //** For a particular situation, it's important to specify that the depot is green if vReevaluationDate is equal to ExtractDate\n",
                  "qAttribute": true,
                  "id": "cellBackgroundColor"
                }
              ],
              "qAttributeDimensions": [],
              "qCalcCondition": {
                "qCond": {},
                "qMsg": {}
              },
              "othersLabel": "Others"
            }
          ],
          "qMeasures": [
            {
              "qDef": {
                "qTags": [],
                "qGrouping": "N",
                "qDef": " Only(LEFT ([E.Local_Icon] , 1 )) \r\n",
                "qNumFormat": {
                  "qType": "F",
                  "qnDec": 2,
                  "qUseThou": 0,
                  "qFmt": "#,##0",
                  "qDec": ".",
                  "qThou": ","
                },
                "qAggrFunc": "None",
                "qAccumulate": 0,
                "qReverseSort": true,
                "qActiveExpression": 0,
                "qExpressions": [],
                "qLabelExpression": "='Over/Under deviation'",
                "autoSort": true,
                "cId": "UmqmMZ",
                "numFormatFromTemplate": true,
                "textAlign": {
                  "auto": false,
                  "align": "right"
                },
                "isCustomFormatted": false
              },
              "qSortBy": {
                "qSortByNumeric": -1,
                "qSortByLoadOrder": 1,
                "qExpression": {}
              },
              "qAttributeExpressions": [
                {
                  "qExpression": "\r\n      if(Only({1}E.Local_Icon) = '▲ Over recruitment'\n     ,RGB(215,25,28)//Red\n     ,if(Only({1}E.Local_Icon) = '▼ Under recruitment'\n     ,RGB(215,25,28)//Red\n     \t\n        ,if(Only({1}E.Local_Icon) = '▲ Faster trend'\n        ,RGB(253,174,97) //Orange\n        ,if(Only({1}E.Local_Icon) = '▼ Slower trend'\n        ,RGB(253,174,97) //Orange\n        \n        \t,if(Only({1}E.Local_Icon) = '○ Within bounds'\n            ,RGB(140,187,19) //Green\n        )))))\n\n\n\t//** Rules to color the background of Depots\n    //** We use {1} to freeze the color at the ExtractDate event if we select another date\n    //** For a particular situation, it's important to specify that the depot is green if vReevaluationDate is equal to ExtractDate\n\n     ",
                  "qAttribute": true,
                  "id": "cellBackgroundColor"
                }
              ],
              "qAttributeDimensions": [],
              "qCalcCond": {},
              "qCalcCondition": {
                "qCond": {},
                "qMsg": {}
              }
            },
            {
              "qDef": {
                "qLabel": "Actuals",
                "qTags": [],
                "qGrouping": "N",
                "qDef": "Only({$<[Enrollment date]=>}[E. Number of patients])\r\n\n\t//** At the ExtractDate this field represent the Actuals value \n\t//** Actuals value represent the last effective cumulated number of patients randomized per depot \n\t\n    //** We use this follow SetAnalysis {$<[Enrollment date]=> in order to freeze the value even if we select another date\n    \t//** With the identifier {$} which means all records in the current selection \n        //** It returns the [E. Number of patients] (Actuals) for the selection, but with the selection in [Enrollment date] removed.\n\t\n    //** [E. Number of patients] is located in section 'E.Local KPI' on back-end\n    \t//** Where we check all number of patients before the ExtractDate",
                "qNumFormat": {
                  "qType": "F",
                  "qnDec": 2,
                  "qUseThou": 0,
                  "qFmt": "#,##0",
                  "qDec": ".",
                  "qThou": ","
                },
                "qAggrFunc": "Expr",
                "qAccumulate": 0,
                "qActiveExpression": 0,
                "qExpressions": [],
                "autoSort": true,
                "cId": "cuHmLV",
                "numFormatFromTemplate": true,
                "textAlign": {
                  "auto": true,
                  "align": "left"
                },
                "isCustomFormatted": false
              },
              "qSortBy": {
                "qSortByNumeric": -1,
                "qSortByLoadOrder": 1,
                "qExpression": {}
              },
              "qAttributeExpressions": [],
              "qAttributeDimensions": [],
              "qCalcCond": {},
              "qCalcCondition": {
                "qCond": {},
                "qMsg": {}
              }
            },
            {
              "qDef": {
                "qLabel": "Min",
                "qTags": [],
                "qGrouping": "N",
                "qDef": "if('$(vReevaluationDate)' = '$(ExtractDate)',\r\nOnly({$<[Enrollment date]=>}[E. Number of patients]),\nOnly({$<[Enrollment date]=>}[E. Int. (Min)])\n)\n\n\n    \n\t//** At the ExtractDate this field represent the Min value forecasted per depot \n\t//** Minimum value represent the last minimal effective value forecasted per depot \n\t\n    //** We use this follow SetAnalysis {$<[Enrollment date]=> in order to freeze the value even if we select another date \n    \t//** With the identifier {$} which means all records in the current selection \n        //** It returns the [E. Int. (Min)] (Interpolated value minimum) for the selection, but with the selection in [Enrollment date] removed.\n        \n    //** E. Int. (Min) is located in section 'E.Local KPI' on back-end\n    \t//** Where we check all minimum values interpolated per Depots at the ExtractDate\n\n    //** For a particular situation, it's important to specify that the forecasts are equal to the reality if vReevaluationDate is equal to ExtractDate\n",
                "qNumFormat": {
                  "qType": "F",
                  "qnDec": 2,
                  "qUseThou": 0,
                  "qFmt": "#,##0.00",
                  "qDec": ".",
                  "qThou": ","
                },
                "qAggrFunc": "Expr",
                "qAccumulate": 0,
                "qActiveExpression": 0,
                "qExpressions": [],
                "autoSort": true,
                "cId": "CDYLzK",
                "numFormatFromTemplate": true,
                "textAlign": {
                  "auto": true,
                  "align": "left"
                },
                "isCustomFormatted": false
              },
              "qSortBy": {
                "qSortByNumeric": -1,
                "qSortByLoadOrder": 1,
                "qExpression": {}
              },
              "qAttributeExpressions": [],
              "qAttributeDimensions": [],
              "qCalcCond": {},
              "qCalcCondition": {
                "qCond": {},
                "qMsg": {}
              }
            },
            {
              "qDef": {
                "qLabel": "Avg",
                "qTags": [],
                "qGrouping": "N",
                "qDef": "\r\nif('$(vReevaluationDate)' = '$(ExtractDate)',\nOnly({$<[Enrollment date]=>}[E. Number of patients]),\nOnly({$<[Enrollment date]=>}[E. Int. (Mean)])\n)\n\n\n\t//** At the ExtractDate this field represent the Mean value forecasted per depot \n\t//** Average value represent the last average effective value forecasted per depot\n\t\n    //** We use this follow SetAnalysis {$<[Enrollment date]=> in order to freeze the value even if we select another date \n    \t//** With the identifier {$} which means all records in the current selection \n        //** It returns the [E. Int. (Mean)] (Interpolated value average) for the selection, but with the selection in [Enrollment date] removed.\n        \n    //** E. Int. (Mean) is located in section 'E.Local KPI' on back-end\n    \t//** Where we check all average values interpolated per Depots at the ExtractDate\n\n    //** For a particular situation, it's important to specify that the forecasts are equal to the reality if vReevaluationDate is equal to ExtractDate\n",
                "qNumFormat": {
                  "qType": "F",
                  "qnDec": 2,
                  "qUseThou": 0,
                  "qFmt": "#,##0.00",
                  "qDec": ".",
                  "qThou": ","
                },
                "qAggrFunc": "Expr",
                "qAccumulate": 0,
                "qActiveExpression": 0,
                "qExpressions": [],
                "autoSort": true,
                "cId": "yJTpjQ",
                "numFormatFromTemplate": true,
                "textAlign": {
                  "auto": true,
                  "align": "left"
                },
                "isCustomFormatted": false
              },
              "qSortBy": {
                "qSortByNumeric": -1,
                "qSortByLoadOrder": 1,
                "qExpression": {}
              },
              "qAttributeExpressions": [],
              "qAttributeDimensions": [],
              "qCalcCond": {},
              "qCalcCondition": {
                "qCond": {},
                "qMsg": {}
              }
            },
            {
              "qDef": {
                "qLabel": "Max",
                "qTags": [],
                "qGrouping": "N",
                "qDef": "\r\nif('$(vReevaluationDate)' = '$(ExtractDate)',\nOnly({$<[Enrollment date]=>}[E. Number of patients]),\nOnly({$<[Enrollment date]=>}[E. Int. (Max)])\n)\n\n\t//** At the ExtractDate this field represent the Max value forecasted per depot \n\t//** Maximum value represent the last maximal effective value forecasted per depot \n\t\n    //** We use this follow SetAnalysis {$<[Enrollment date]=> in order to freeze the value even if we select another date \n    \t//** With the identifier {$} which means all records in the current selection \n        //** It returns the [E. Int. (Max)] (Interpolated value maximum) for the selection, but with the selection in [Enrollment date] removed.\n        \n    //** E. Int. (Max) is located in section 'E.Local KPI' on back-end\n    \t//** Where we check all maximum values interpolated per Depots at the ExtractDate\n\n    //** For a particular situation, it's important to specify that the forecasts are equal to the reality if vReevaluationDate is equal to ExtractDate\n",
                "qNumFormat": {
                  "qType": "F",
                  "qnDec": 2,
                  "qUseThou": 0,
                  "qFmt": "#,##0.00",
                  "qDec": ".",
                  "qThou": ","
                },
                "qAggrFunc": "Expr",
                "qAccumulate": 0,
                "qActiveExpression": 0,
                "qExpressions": [],
                "autoSort": true,
                "cId": "QJvBT",
                "numFormatFromTemplate": true,
                "textAlign": {
                  "auto": true,
                  "align": "left"
                },
                "isCustomFormatted": false
              },
              "qSortBy": {
                "qSortByNumeric": -1,
                "qSortByLoadOrder": 1,
                "qExpression": {}
              },
              "qAttributeExpressions": [],
              "qAttributeDimensions": [],
              "qCalcCond": {},
              "qCalcCondition": {
                "qCond": {},
                "qMsg": {}
              }
            }
          ],
          "qInterColumnSortOrder": [
            0,
            1,
            2,
            3,
            5,
            4
          ],
          "qSuppressZero": true,
          "qSuppressMissing": true,
          "qInitialDataFetch": [
            {
              "qLeft": 0,
              "qTop": 0,
              "qWidth": 0,
              "qHeight": 0
            }
          ],
          "qReductionMode": "N",
          "qMode": "S",
          "qPseudoDimPos": -1,
          "qNoOfLeftDims": -1,
          "qMaxStackedCells": 5000,
          "qCalcCond": {},
          "qTitle": {},
          "qCalcCondition": {
            "qCond": {},
            "qMsg": {}
          },
          "qColumnOrder": [
            1,
            0,
            2,
            3,
            4,
            5
          ],
          "columnOrder": [
            1,
            0,
            2,
            3,
            4,
            5
          ],
          "columnWidths": [
            -1,
            115,
            89,
            85,
            -1,
            -1
          ],
          "qLayoutExclude": {
            "qHyperCubeDef": {
              "qDimensions": [],
              "qMeasures": [],
              "qInterColumnSortOrder": [],
              "qInitialDataFetch": [],
              "qReductionMode": "N",
              "qMode": "S",
              "qPseudoDimPos": -1,
              "qNoOfLeftDims": -1,
              "qMaxStackedCells": 5000,
              "qCalcCond": {},
              "qTitle": {},
              "qCalcCondition": {
                "qCond": {},
                "qMsg": {}
              },
              "qColumnOrder": []
            }
          }
        },
        "showTitles": true,
        "title": "Actuals vs min and max daily estimations",
        "subtitle": "Please note that only randomization directly under a warehouse is considered.",
        "footnote": "",
        "showDetails": false,
        "totals": {
          "show": false,
          "position": "noTotals",
          "label": "Totals"
        },
        "scrolling": {
          "keepFirstColumnInView": false,
          "horizontal": true
        },
        "multiline": {
          "wrapTextInHeaders": true,
          "wrapTextInCells": true
        },
        "visualization": "table",
        "qLayoutExclude": {}
      },
      "qChildren": []
    },
    {
      "qProperty": {
        "qInfo": {
          "qId": "jfCn",
          "qType": "swr-sense-navigation"
        },
        "qMetaDef": {},
        "showTitles": false,
        "title": "",
        "subtitle": "",
        "footnote": "",
        "showDetails": false,
        "props": {
          "buttonLabel": "Inventories in extract",
          "buttonStyle": "info",
          "fullWidth": true,
          "buttonAlign": "left",
          "buttonIcon": "",
          "action": "gotoSheet",
          "sheetId": "",
          "selectedSheet": "51919931-3e60-4fba-9573-d1779a73b96a",
          "selectedStory": "",
          "websiteUrl": "",
          "isActionsBefore": false,
          "actionBefore1": "none",
          "field1": "",
          "variable1": "",
          "value1": "",
          "bookmark1": "",
          "actionBefore2": "none",
          "field2": "",
          "variable2": "",
          "value2": "",
          "bookmark2": ""
        },
        "visualization": "swr-sense-navigation",
        "version": "0.5.8",
        "extensionMeta": {
          "translationKey": "",
          "icon": "puzzle",
          "iconChar": "g",
          "isLibraryItem": true,
          "visible": true,
          "name": "Sheet Navigation & Actions",
          "description": "Sense Sheet Navigation + Actions visualization extension for Qlik Sense.",
          "template": "swr-sense-navigation",
          "isThirdParty": true,
          "type": "visualization",
          "version": "0.5.8",
          "preview": "swr-sense-navigation.png",
          "author": "Stefan Walther",
          "license": "MIT",
          "homepage": "http://github.com/stefanwalther/sense-navigation",
          "keywords": "qlik-sense, visualization",
          "repository": "https://github.com/stefanwalther/sense-navigation",
          "dependencies": {
            "qlik-sense": ">=2.1.1"
          },
          "previewIconURL": "../extensions/swr-sense-navigation/swr-sense-navigation.png"
        }
      },
      "qChildren": []
    },
    {
      "qProperty": {
        "qInfo": {
          "qId": "jctaSj",
          "qType": "text-image"
        },
        "qMetaDef": {},
        "qHyperCubeDef": {
          "qDimensions": [],
          "qMeasures": [],
          "qInterColumnSortOrder": [],
          "qInitialDataFetch": [],
          "qReductionMode": "N",
          "qMode": "S",
          "qPseudoDimPos": -1,
          "qNoOfLeftDims": -1,
          "qMaxStackedCells": 5000,
          "qCalcCond": {},
          "qTitle": {},
          "qCalcCondition": {
            "qCond": {},
            "qMsg": {}
          },
          "qColumnOrder": [],
          "qLayoutExclude": {
            "qHyperCubeDef": {
              "qDimensions": [],
              "qMeasures": [],
              "qInterColumnSortOrder": [],
              "qInitialDataFetch": [],
              "qReductionMode": "N",
              "qMode": "S",
              "qPseudoDimPos": -1,
              "qNoOfLeftDims": -1,
              "qMaxStackedCells": 5000,
              "qCalcCond": {},
              "qTitle": {},
              "qCalcCondition": {
                "qCond": {},
                "qMsg": {}
              },
              "qColumnOrder": []
            }
          }
        },
        "showTitles": false,
        "title": "",
        "subtitle": "",
        "footnote": "",
        "showDetails": false,
        "responsive": "all",
        "markdown": "^[**#[Note: ](3)**Only per depot minimum and maximum are relevant to monitor randomization in the curve. Please **select a single depot **to have an informative randomization curve.](center)",
        "images": [],
        "background": {
          "isUsed": false,
          "size": "auto",
          "position": "topLeft",
          "url": {}
        },
        "visualization": "text-image"
      },
      "qChildren": []
    },
    {
      "qProperty": {
        "qInfo": {
          "qId": "pnfEEDd",
          "qType": "linechart"
        },
        "qMetaDef": {},
        "qHyperCubeDef": {
          "qDimensions": [
            {
              "qDef": {
                "qGrouping": "N",
                "qFieldDefs": [
                  "=[Enrollment date]\r\n"
                ],
                "qFieldLabels": [
                  "Date"
                ],
                "qSortCriterias": [
                  {
                    "qSortByNumeric": 1,
                    "qSortByAscii": 1,
                    "qSortByLoadOrder": 1,
                    "qExpression": {}
                  }
                ],
                "qNumberPresentations": [],
                "qActiveField": 0,
                "autoSort": true,
                "cId": "gJADBn",
                "othersLabel": "Others"
              },
              "qOtherTotalSpec": {
                "qOtherMode": "OTHER_OFF",
                "qOtherCounted": {
                  "qv": "10"
                },
                "qOtherLimit": {
                  "qv": "0"
                },
                "qOtherLimitMode": "OTHER_GE_LIMIT",
                "qForceBadValueKeeping": true,
                "qApplyEvenWhenPossiblyWrongResult": true,
                "qOtherSortMode": "OTHER_SORT_DESCENDING",
                "qTotalMode": "TOTAL_OFF",
                "qReferencedExpression": {}
              },
              "qOtherLabel": {
                "qv": "Others"
              },
              "qTotalLabel": {},
              "qCalcCond": {},
              "qAttributeExpressions": [],
              "qAttributeDimensions": [],
              "qCalcCondition": {
                "qCond": {},
                "qMsg": {}
              }
            }
          ],
          "qMeasures": [
            {
              "qDef": {
                "qLabel": "Max estimated",
                "qTags": [],
                "qGrouping": "N",
                "qDef": "if([Enrollment date]<='$(vReevaluationDate)'\r\n\t,Max([Local Number of patients (cumulated)])\n\t,Sum([Interpolated enrollment warehouse (Max)])\n  )\n\n\t//** Until the ReevaluationDate the line should represent the Actuals value per depot at a specific date, after this date we have the max's value forecasted \n\t//** Actuals value represent the effective cumulated number of patients randomized \n    //** Max !!!",
                "qNumFormat": {
                  "qType": "F",
                  "qnDec": 2,
                  "qUseThou": 0,
                  "qFmt": "#,##0.00",
                  "qDec": ".",
                  "qThou": ","
                },
                "qAccumulate": 0,
                "qActiveExpression": 0,
                "qExpressions": [],
                "autoSort": true,
                "cId": "pNmm",
                "numFormatFromTemplate": true,
                "coloring": {
                  "baseColor": {
                    "color": "#F4a74f",
                    "index": -1
                  }
                },
                "isCustomFormatted": false
              },
              "qSortBy": {
                "qSortByNumeric": -1,
                "qSortByLoadOrder": 1,
                "qExpression": {}
              },
              "qAttributeExpressions": [],
              "qAttributeDimensions": [],
              "qCalcCond": {},
              "qCalcCondition": {
                "qCond": {},
                "qMsg": {}
              }
            },
            {
              "qDef": {
                "qLabel": "Avg estimated",
                "qTags": [],
                "qGrouping": "N",
                "qDef": "if([Enrollment date]<='$(vReevaluationDate)'\r\n\t,Max([Local Number of patients (cumulated)])\n\t,Sum([Interpolated enrollment warehouse (Mean)])\n  )\n\n\t//** Until the ReevaluationDate the line should represent the Actuals value per depot at a specific date, after this date we have the average's value forecasted \n\t//** Actuals value represent the effective cumulated number of patients randomized ",
                "qNumFormat": {
                  "qType": "F",
                  "qnDec": 2,
                  "qUseThou": 0,
                  "qFmt": "#,##0.00",
                  "qDec": ".",
                  "qThou": ","
                },
                "qAccumulate": 0,
                "qActiveExpression": 0,
                "qExpressions": [],
                "autoSort": true,
                "cId": "rPSMwpG",
                "numFormatFromTemplate": true,
                "coloring": {
                  "baseColor": {
                    "color": "#8cbb13",
                    "index": -1
                  }
                },
                "isCustomFormatted": false
              },
              "qSortBy": {
                "qSortByNumeric": -1,
                "qSortByLoadOrder": 1,
                "qExpression": {}
              },
              "qAttributeExpressions": [],
              "qAttributeDimensions": [],
              "qCalcCond": {},
              "qCalcCondition": {
                "qCond": {},
                "qMsg": {}
              }
            },
            {
              "qDef": {
                "qLabel": "Min estimated",
                "qTags": [],
                "qGrouping": "N",
                "qDef": "if([Enrollment date]<='$(vReevaluationDate)'\r\n\t,Max([Local Number of patients (cumulated)])\n\t,Sum([Interpolated enrollment warehouse (Min)])\n  )\n  \n\t//** Until the ReevaluationDate the line should represent the Actuals value per depot at a specific date, after this date we have the min's value forecasted\n\t//** Actuals value represent the effective cumulated number of patients randomized ",
                "qNumFormat": {
                  "qType": "F",
                  "qnDec": 2,
                  "qUseThou": 0,
                  "qFmt": "#,##0.00",
                  "qDec": ".",
                  "qThou": ","
                },
                "qAccumulate": 0,
                "qActiveExpression": 0,
                "qExpressions": [],
                "autoSort": true,
                "cId": "ATvAkj",
                "numFormatFromTemplate": true,
                "coloring": {
                  "baseColor": {
                    "color": "#F4a74f",
                    "index": -1
                  }
                },
                "isCustomFormatted": false
              },
              "qSortBy": {
                "qSortByNumeric": -1,
                "qSortByLoadOrder": 1,
                "qExpression": {}
              },
              "qAttributeExpressions": [],
              "qAttributeDimensions": [],
              "qCalcCond": {},
              "qCalcCondition": {
                "qCond": {},
                "qMsg": {}
              }
            },
            {
              "qDef": {
                "qLabel": "Actuals",
                "qTags": [],
                "qGrouping": "N",
                "qDef": "if([Enrollment date]<'$(vMinEDate)', 0,\r\n\t if([Enrollment date]<='$(ExtractDate)'\n    \t, Max([Local Number of patients (cumulated)])\n, ''))\n        \n\t//** Until the ExtractDate the line should represent the Actuals value per depot at a specific date, after this date we don't have any value \n    //** We use the variable vMinEDate on the Actuals in order to show a 0 when there isn't value before that date \n\t//** Actuals value represent the effective cumulated number of quantity dispensed \n    ",
                "qNumFormat": {
                  "qType": "F",
                  "qnDec": 2,
                  "qUseThou": 0,
                  "qFmt": "#,##0",
                  "qDec": ".",
                  "qThou": ","
                },
                "qAccumulate": 0,
                "qActiveExpression": 0,
                "qExpressions": [],
                "autoSort": true,
                "cId": "dUuJMu",
                "numFormatFromTemplate": true,
                "coloring": {
                  "baseColor": {
                    "color": "#00acc2",
                    "index": -1
                  }
                },
                "isCustomFormatted": false
              },
              "qSortBy": {
                "qSortByNumeric": -1,
                "qSortByLoadOrder": 1,
                "qExpression": {}
              },
              "qAttributeExpressions": [],
              "qAttributeDimensions": [],
              "qCalcCond": {},
              "qCalcCondition": {
                "qCond": {},
                "qMsg": {}
              }
            }
          ],
          "qInterColumnSortOrder": [
            0,
            1,
            2,
            3,
            4
          ],
          "qSuppressMissing": true,
          "qInitialDataFetch": [
            {
              "qLeft": 0,
              "qTop": 0,
              "qWidth": 17,
              "qHeight": 500
            }
          ],
          "qReductionMode": "N",
          "qMode": "S",
          "qPseudoDimPos": -1,
          "qNoOfLeftDims": -1,
          "qAlwaysFullyExpanded": true,
          "qMaxStackedCells": 5000,
          "qCalcCond": {
            "qv": "if(getselectedcount([Country label])=1,1,0) or\r\n\nif(getselectedcount([Depot])=1,1,0)\n\n"
          },
          "qTitle": {},
          "qCalcCondition": {
            "qCond": {
              "qv": "if(getselectedcount([Country label])=1,1,0) or\r\n\nif(getselectedcount([Depot])=1,1,0)\n\n"
            },
            "qMsg": {
              "qv": "='Please select a single depot to visualize the graph'"
            }
          },
          "qColumnOrder": [],
          "qLayoutExclude": {
            "qHyperCubeDef": {
              "qDimensions": [],
              "qMeasures": [],
              "qInterColumnSortOrder": [],
              "qInitialDataFetch": [],
              "qReductionMode": "N",
              "qMode": "S",
              "qPseudoDimPos": -1,
              "qNoOfLeftDims": -1,
              "qMaxStackedCells": 5000,
              "qCalcCond": {},
              "qTitle": {},
              "qCalcCondition": {
                "qCond": {},
                "qMsg": {}
              },
              "qColumnOrder": []
            }
          },
          "customErrorMessage": {
            "calcCond": ""
          }
        },
        "refLine": {
          "refLines": []
        },
        "showTitles": true,
        "title": "",
        "subtitle": {
          "qStringExpression": {
            "qExpr": "='The first 6 months of forecasted data since the simulation start date are available for monitoring. If forecasts haven''t been generated in the past 6 months you should consider running new simulations with the newest extract available.'"
          }
        },
        "footnote": "",
        "showDetails": false,
        "lineType": "line",
        "stackedArea": false,
        "separateStacking": true,
        "scrollStartPos": 0,
        "nullMode": "gap",
        "dataPoint": {
          "show": false,
          "showLabels": false
        },
        "gridLine": {
          "auto": true,
          "spacing": 2
        },
        "color": {
          "auto": true,
          "mode": "primary",
          "useBaseColors": "off",
          "paletteColor": {
            "index": 6
          },
          "useDimColVal": true,
          "useMeasureGradient": false,
          "persistent": false,
          "expressionIsColor": true,
          "expressionLabel": "",
          "measureScheme": "sg",
          "reverseScheme": false,
          "dimensionScheme": "12",
          "autoMinMax": true,
          "measureMin": 0,
          "measureMax": 10
        },
        "legend": {
          "show": true,
          "dock": "top",
          "showTitle": false
        },
        "dimensionAxis": {
          "continuousAuto": true,
          "show": "labels",
          "label": "auto",
          "dock": "near"
        },
        "preferContinuousAxis": true,
        "showMiniChartForContinuousAxis": false,
        "measureAxis": {
          "show": "labels",
          "dock": "near",
          "spacing": 1,
          "autoMinMax": true,
          "minMax": "minMax",
          "min": {
            "qValueExpression": {
              "qExpr": "[Local Number of patients (cumulated)]"
            }
          },
          "max": {
            "qValueExpression": {
              "qExpr": "=[Interpolated enrollment warehouse (Max)]\r\nor\n[Local Number of patients (cumulated)]"
            }
          },
          "logarithmic": false
        },
        "visualization": "linechart"
      },
      "qChildren": []
    },
    {
      "qProperty": {
        "qInfo": {
          "qId": "tvshAF",
          "qType": "kpi"
        },
        "qMetaDef": {},
        "qHyperCubeDef": {
          "qDimensions": [],
          "qMeasures": [
            {
              "qDef": {
                "qLabel": "Simulation start date",
                "qTags": [],
                "qGrouping": "N",
                "qDef": "Only({1}date([Reevaluation date],'DD-MMM-YY'))\r\n\n\t//** The aggregation Only() is useful to put the condition {1}\n\t\t//** We use {1} to freeze the date even if we select another date\n ",
                "qNumFormat": {
                  "qType": "U",
                  "qnDec": 10,
                  "qUseThou": 0
                },
                "qAccumulate": 0,
                "qActiveExpression": 0,
                "qExpressions": [],
                "autoSort": true,
                "cId": "uRAzT",
                "numFormatFromTemplate": true,
                "measureAxis": {
                  "min": 0,
                  "max": 100
                },
                "conditionalColoring": {
                  "useConditionalColoring": false,
                  "singleColor": 3,
                  "paletteSingleColor": {
                    "index": -1,
                    "color": "#00acc2"
                  },
                  "segments": {
                    "limits": [],
                    "paletteColors": [
                      {
                        "index": 6
                      }
                    ]
                  }
                }
              },
              "qSortBy": {
                "qSortByNumeric": -1,
                "qSortByLoadOrder": 1,
                "qExpression": {}
              },
              "qAttributeExpressions": [],
              "qAttributeDimensions": [],
              "qCalcCond": {},
              "qCalcCondition": {
                "qCond": {},
                "qMsg": {}
              }
            }
          ],
          "qInterColumnSortOrder": [
            0
          ],
          "qSuppressMissing": true,
          "qInitialDataFetch": [
            {
              "qLeft": 0,
              "qTop": 0,
              "qWidth": 500,
              "qHeight": 10
            }
          ],
          "qReductionMode": "N",
          "qMode": "S",
          "qPseudoDimPos": -1,
          "qNoOfLeftDims": -1,
          "qMaxStackedCells": 5000,
          "qCalcCond": {},
          "qTitle": {},
          "qCalcCondition": {
            "qCond": {},
            "qMsg": {}
          },
          "qColumnOrder": [],
          "qLayoutExclude": {
            "qHyperCubeDef": {
              "qDimensions": [],
              "qMeasures": [],
              "qInterColumnSortOrder": [],
              "qInitialDataFetch": [],
              "qReductionMode": "N",
              "qMode": "S",
              "qPseudoDimPos": -1,
              "qNoOfLeftDims": -1,
              "qMaxStackedCells": 5000,
              "qCalcCond": {},
              "qTitle": {},
              "qCalcCondition": {
                "qCond": {},
                "qMsg": {}
              },
              "qColumnOrder": []
            }
          }
        },
        "showTitles": false,
        "title": "",
        "subtitle": "",
        "footnote": "",
        "showDetails": false,
        "showMeasureTitle": true,
        "textAlign": "center",
        "fontSize": "M",
        "useLink": false,
        "sheetLink": "",
        "openUrlInNewTab": true,
        "visualization": "kpi",
        "color": {
          "useBaseColors": "measure"
        }
      },
      "qChildren": []
    },
    {
      "qProperty": {
        "qInfo": {
          "qId": "mJKJy",
          "qType": "table"
        },
        "qMetaDef": {},
        "qHyperCubeDef": {
          "qDimensions": [
            {
              "qDef": {
                "qGrouping": "N",
                "qFieldDefs": [
                  "=[E_Icon]"
                ],
                "qFieldLabels": [
                  "Color legend"
                ],
                "qSortCriterias": [
                  {
                    "qSortByLoadOrder": 1,
                    "qSortByExpression": 1,
                    "qExpression": {
                      "qv": "E.Icon_No"
                    }
                  }
                ],
                "qNumberPresentations": [],
                "qActiveField": 0,
                "autoSort": false,
                "cId": "JzVmhU",
                "othersLabel": "Autres",
                "textAlign": {
                  "auto": true,
                  "align": "left"
                },
                "representation": {
                  "type": "text",
                  "urlLabel": ""
                }
              },
              "qNullSuppression": true,
              "qOtherTotalSpec": {
                "qOtherMode": "OTHER_OFF",
                "qOtherCounted": {
                  "qv": "10"
                },
                "qOtherLimit": {
                  "qv": "0"
                },
                "qOtherLimitMode": "OTHER_GE_LIMIT",
                "qForceBadValueKeeping": true,
                "qApplyEvenWhenPossiblyWrongResult": true,
                "qOtherSortMode": "OTHER_SORT_DESCENDING",
                "qTotalMode": "TOTAL_OFF",
                "qReferencedExpression": {}
              },
              "qOtherLabel": {
                "qv": "Autres"
              },
              "qTotalLabel": {},
              "qCalcCond": {},
              "qAttributeExpressions": [
                {
                  "qExpression": "      if( Only( {1} E_Icon) = '▲ Over recruitment'\r\n     ,RGB(215,25,28)//Red\n     ,if( Only( {1} E_Icon) = '▼ Under recruitment'\n     ,RGB(215,25,28)//Red\n     \t\n        ,if( Only( {1} E_Icon) = '▲ Faster trend'\n        ,RGB(253,174,97) //Orange\n        ,if( Only( {1} E_Icon) = '▼ Slower trend'\n        ,RGB(253,174,97) //Orange\n        \n        \t,if( Only( {1} E_Icon) = '○ Within bounds'\n            ,RGB(140,187,19) //Green\n        )))))\n        \n      //** A table has been created on back-end to color the field [E_Local_Icon] **// \n      \n                \n",
                  "qAttribute": true,
                  "id": "cellBackgroundColor"
                }
              ],
              "qAttributeDimensions": [],
              "qCalcCondition": {
                "qCond": {},
                "qMsg": {}
              }
            }
          ],
          "qMeasures": [],
          "qInterColumnSortOrder": [
            0
          ],
          "qSuppressMissing": true,
          "qInitialDataFetch": [],
          "qReductionMode": "N",
          "qMode": "S",
          "qPseudoDimPos": -1,
          "qNoOfLeftDims": -1,
          "qMaxStackedCells": 5000,
          "qCalcCond": {},
          "qTitle": {},
          "qCalcCondition": {
            "qCond": {},
            "qMsg": {}
          },
          "qColumnOrder": [
            0
          ],
          "columnOrder": [
            0
          ],
          "columnWidths": [
            146.875
          ],
          "qLayoutExclude": {
            "qHyperCubeDef": {
              "qDimensions": [],
              "qMeasures": [],
              "qInterColumnSortOrder": [],
              "qInitialDataFetch": [],
              "qReductionMode": "N",
              "qMode": "S",
              "qPseudoDimPos": -1,
              "qNoOfLeftDims": -1,
              "qMaxStackedCells": 5000,
              "qCalcCond": {},
              "qTitle": {},
              "qCalcCondition": {
                "qCond": {},
                "qMsg": {}
              },
              "qColumnOrder": []
            }
          }
        },
        "showTitles": false,
        "title": "",
        "subtitle": "",
        "footnote": "",
        "showDetails": false,
        "totals": {
          "show": false,
          "position": "noTotals",
          "label": ""
        },
        "scrolling": {
          "keepFirstColumnInView": true,
          "horizontal": false
        },
        "multiline": {
          "wrapTextInHeaders": true,
          "wrapTextInCells": true
        },
        "visualization": "table"
      },
      "qChildren": []
    },
    {
      "qProperty": {
        "qInfo": {
          "qId": "jSDHz",
          "qType": "swr-sense-navigation"
        },
        "qMetaDef": {},
        "showTitles": false,
        "title": "",
        "subtitle": "",
        "footnote": "",
        "showDetails": false,
        "props": {
          "buttonLabel": "Depot shipments plan follow-up",
          "buttonStyle": "info",
          "fullWidth": true,
          "buttonAlign": "left",
          "buttonIcon": "",
          "action": "gotoSheet",
          "sheetId": "",
          "selectedSheet": "197832a8-e697-4971-9cd9-434a797c90e5",
          "selectedStory": "",
          "websiteUrl": "",
          "isActionsBefore": false,
          "actionBefore1": "none",
          "field1": "",
          "variable1": "",
          "value1": "",
          "bookmark1": "",
          "actionBefore2": "none",
          "field2": "",
          "variable2": "",
          "value2": "",
          "bookmark2": ""
        },
        "visualization": "swr-sense-navigation",
        "version": "0.5.8",
        "extensionMeta": {
          "translationKey": "",
          "icon": "puzzle",
          "iconChar": "g",
          "isLibraryItem": true,
          "visible": true,
          "name": "Sheet Navigation & Actions",
          "description": "Sense Sheet Navigation + Actions visualization extension for Qlik Sense.",
          "template": "swr-sense-navigation",
          "isThirdParty": true,
          "type": "visualization",
          "version": "0.5.8",
          "preview": "swr-sense-navigation.png",
          "author": "Stefan Walther",
          "license": "MIT",
          "homepage": "http://github.com/stefanwalther/sense-navigation",
          "keywords": "qlik-sense, visualization",
          "repository": "https://github.com/stefanwalther/sense-navigation",
          "dependencies": {
            "qlik-sense": ">=2.1.1"
          },
          "previewIconURL": "../extensions/swr-sense-navigation/swr-sense-navigation.png"
        }
      },
      "qChildren": []
    }
  ]
}