{
  "qProperty": {
    "qInfo": {
      "qId": "197832a8-e697-4971-9cd9-434a797c90e5",
      "qType": "sheet"
    },
    "qMetaDef": {
      "title": "Depot shipments plan follow-up",
      "description": ""
    },
    "rank": 2.703125,
    "thumbnail": {
      "qStaticContentUrlDef": {
        "qUrl": "/appcontent/47d9b58b-9f1a-42fb-b391-25c4f2464e62/Depot management-03.jpg"
      }
    },
    "columns": 24,
    "rows": 12,
    "cells": [
      {
        "name": "2fa8d83f-2b87-46c1-8702-5cc7ed8931be",
        "type": "swr-sense-navigation",
        "col": 0,
        "row": 11,
        "colspan": 4,
        "rowspan": 1,
        "bounds": {
          "y": 91.66666666666666,
          "x": 0,
          "width": 16.666666666666664,
          "height": 8.333333333333332
        }
      },
      {
        "name": "76985ecd-fb3c-42b7-9bc5-62fce510b654",
        "type": "swr-sense-navigation",
        "col": 4,
        "row": 11,
        "colspan": 4,
        "rowspan": 1,
        "bounds": {
          "y": 91.66666666666666,
          "x": 16.666666666666664,
          "width": 16.666666666666664,
          "height": 8.333333333333332
        }
      },
      {
        "name": "94593f94-98f2-45bc-b0f5-9bd6acd87b08",
        "type": "swr-sense-navigation",
        "col": 8,
        "row": 11,
        "colspan": 4,
        "rowspan": 1,
        "bounds": {
          "y": 91.66666666666666,
          "x": 33.33333333333333,
          "width": 16.666666666666664,
          "height": 8.333333333333332
        }
      },
      {
        "name": "869c3239-936d-4ea0-a2b1-114861ae8647",
        "type": "swr-sense-navigation",
        "col": 12,
        "row": 11,
        "colspan": 4,
        "rowspan": 1,
        "bounds": {
          "y": 91.66666666666666,
          "x": 50,
          "width": 16.666666666666664,
          "height": 8.333333333333332
        }
      },
      {
        "name": "91b7d92c-f170-4d3f-8935-58fe897bdc5a",
        "type": "swr-sense-navigation",
        "col": 16,
        "row": 11,
        "colspan": 4,
        "rowspan": 1,
        "bounds": {
          "y": 91.66666666666666,
          "x": 66.66666666666666,
          "width": 16.666666666666664,
          "height": 8.333333333333332
        }
      },
      {
        "name": "748ecc65-46df-410c-baf5-25381ab6374e",
        "type": "table",
        "col": 0,
        "row": 4,
        "colspan": 21,
        "rowspan": 7,
        "bounds": {
          "y": 33.33333333333333,
          "x": 0,
          "width": 87.5,
          "height": 58.333333333333336
        }
      },
      {
        "name": "4a243108-a692-42b8-b46d-b99c22cf4607",
        "type": "filterpane",
        "col": 21,
        "row": 1,
        "colspan": 3,
        "rowspan": 1,
        "bounds": {
          "y": 8.333333333333332,
          "x": 87.5,
          "width": 12.5,
          "height": 8.333333333333332
        }
      },
      {
        "name": "f322227b-33bd-4b45-ab9a-e02bcdcf0f55",
        "type": "swr-sense-navigation",
        "col": 20,
        "row": 11,
        "colspan": 4,
        "rowspan": 1,
        "bounds": {
          "y": 91.66666666666666,
          "x": 83.33333333333334,
          "width": 16.666666666666664,
          "height": 8.333333333333332
        }
      },
      {
        "name": "PyZen",
        "type": "filterpane",
        "col": 21,
        "row": 0,
        "colspan": 3,
        "rowspan": 1,
        "bounds": {
          "y": 0,
          "x": 87.5,
          "width": 12.5,
          "height": 8.333333333333332
        }
      },
      {
        "name": "MRJjR",
        "type": "kpi",
        "col": 4,
        "row": 1,
        "colspan": 4,
        "rowspan": 2,
        "bounds": {
          "y": 8.333333333333332,
          "x": 16.666666666666664,
          "width": 16.666666666666664,
          "height": 16.666666666666664
        }
      },
      {
        "name": "nNd",
        "type": "kpi",
        "col": 0,
        "row": 1,
        "colspan": 4,
        "rowspan": 2,
        "bounds": {
          "y": 8.333333333333332,
          "x": 0,
          "width": 16.666666666666664,
          "height": 16.666666666666664
        }
      },
      {
        "name": "dcjGJXP",
        "type": "kpi",
        "col": 8,
        "row": 1,
        "colspan": 4,
        "rowspan": 2,
        "bounds": {
          "y": 8.333333333333332,
          "x": 33.33333333333333,
          "width": 16.666666666666664,
          "height": 16.666666666666664
        }
      },
      {
        "name": "AjEwkY",
        "type": "kpi",
        "col": 12,
        "row": 1,
        "colspan": 4,
        "rowspan": 2,
        "bounds": {
          "y": 8.333333333333332,
          "x": 50,
          "width": 16.666666666666664,
          "height": 16.666666666666664
        }
      },
      {
        "name": "cgUEQZf",
        "type": "filterpane",
        "col": 21,
        "row": 4,
        "colspan": 3,
        "rowspan": 1,
        "bounds": {
          "y": 33.33333333333333,
          "x": 87.5,
          "width": 12.5,
          "height": 8.333333333333332
        }
      },
      {
        "name": "efZqEp",
        "type": "filterpane",
        "col": 21,
        "row": 3,
        "colspan": 3,
        "rowspan": 1,
        "bounds": {
          "y": 25,
          "x": 87.5,
          "width": 12.5,
          "height": 8.333333333333332
        }
      },
      {
        "name": "YCDDJbM",
        "type": "filterpane",
        "col": 21,
        "row": 2,
        "colspan": 3,
        "rowspan": 1,
        "bounds": {
          "y": 16.666666666666664,
          "x": 87.5,
          "width": 12.5,
          "height": 8.333333333333332
        }
      }
    ],
    "qChildListDef": {
      "qData": {
        "title": "/title"
      }
    },
    "gridResolution": "small"
  },
  "qChildren": [
    {
      "qProperty": {
        "qInfo": {
          "qId": "2fa8d83f-2b87-46c1-8702-5cc7ed8931be",
          "qType": "swr-sense-navigation"
        },
        "qMetaDef": {},
        "showTitles": false,
        "title": "",
        "subtitle": "",
        "footnote": "",
        "showDetails": false,
        "props": {
          "buttonLabel": "Welcome",
          "buttonStyle": "primary",
          "fullWidth": true,
          "buttonAlign": "left",
          "buttonIcon": "",
          "action": "gotoSheet",
          "sheetId": "",
          "selectedSheet": "5c03ee6a-cd5c-448b-b413-0ccd7a0707b3",
          "selectedStory": "",
          "websiteUrl": "",
          "isActionsBefore": false,
          "actionBefore1": "none",
          "field1": "",
          "variable1": "",
          "value1": "",
          "bookmark1": "",
          "actionBefore2": "none",
          "field2": "",
          "variable2": "",
          "value2": "",
          "bookmark2": ""
        },
        "visualization": "swr-sense-navigation",
        "version": "0.5.8",
        "extensionMeta": {
          "translationKey": "",
          "icon": "puzzle",
          "iconChar": "g",
          "isLibraryItem": true,
          "visible": true,
          "name": "Sheet Navigation & Actions",
          "description": "Sense Sheet Navigation + Actions visualization extension for Qlik Sense.",
          "template": "swr-sense-navigation",
          "isThirdParty": true,
          "type": "visualization",
          "version": "0.5.8",
          "preview": "swr-sense-navigation.png",
          "author": "Stefan Walther",
          "license": "MIT",
          "homepage": "http://github.com/stefanwalther/sense-navigation",
          "keywords": "qlik-sense, visualization",
          "repository": "https://github.com/stefanwalther/sense-navigation",
          "dependencies": {
            "qlik-sense": ">=2.1.1"
          },
          "previewIconURL": "../extensions/swr-sense-navigation/swr-sense-navigation.png"
        }
      },
      "qChildren": []
    },
    {
      "qProperty": {
        "qInfo": {
          "qId": "76985ecd-fb3c-42b7-9bc5-62fce510b654",
          "qType": "swr-sense-navigation"
        },
        "qMetaDef": {},
        "showTitles": false,
        "title": "",
        "subtitle": "",
        "footnote": "",
        "showDetails": false,
        "props": {
          "buttonLabel": "Overview",
          "buttonStyle": "info",
          "fullWidth": true,
          "buttonAlign": "left",
          "buttonIcon": "",
          "action": "gotoSheet",
          "sheetId": "",
          "selectedSheet": "ddcbdf0d-9227-404e-988b-cfd597afa362",
          "selectedStory": "",
          "websiteUrl": "",
          "isActionsBefore": false,
          "actionBefore1": "none",
          "field1": "",
          "variable1": "",
          "value1": "",
          "bookmark1": "",
          "actionBefore2": "none",
          "field2": "",
          "variable2": "",
          "value2": "",
          "bookmark2": ""
        },
        "visualization": "swr-sense-navigation",
        "version": "0.5.8",
        "extensionMeta": {
          "translationKey": "",
          "icon": "puzzle",
          "iconChar": "g",
          "isLibraryItem": true,
          "visible": true,
          "name": "Sheet Navigation & Actions",
          "description": "Sense Sheet Navigation + Actions visualization extension for Qlik Sense.",
          "template": "swr-sense-navigation",
          "isThirdParty": true,
          "type": "visualization",
          "version": "0.5.8",
          "preview": "swr-sense-navigation.png",
          "author": "Stefan Walther",
          "license": "MIT",
          "homepage": "http://github.com/stefanwalther/sense-navigation",
          "keywords": "qlik-sense, visualization",
          "repository": "https://github.com/stefanwalther/sense-navigation",
          "dependencies": {
            "qlik-sense": ">=2.1.1"
          },
          "previewIconURL": "../extensions/swr-sense-navigation/swr-sense-navigation.png"
        }
      },
      "qChildren": []
    },
    {
      "qProperty": {
        "qInfo": {
          "qId": "94593f94-98f2-45bc-b0f5-9bd6acd87b08",
          "qType": "swr-sense-navigation"
        },
        "qMetaDef": {},
        "showTitles": false,
        "title": "",
        "subtitle": "",
        "footnote": "",
        "showDetails": false,
        "props": {
          "buttonLabel": "Dispensing analysis",
          "buttonStyle": "info",
          "fullWidth": true,
          "buttonAlign": "left",
          "buttonIcon": "",
          "action": "gotoSheet",
          "sheetId": "",
          "selectedSheet": "f74e4507-c811-4033-8cdf-efd423214bad",
          "selectedStory": "",
          "websiteUrl": "",
          "isActionsBefore": false,
          "actionBefore1": "none",
          "field1": "",
          "variable1": "",
          "value1": "",
          "bookmark1": "",
          "actionBefore2": "none",
          "field2": "",
          "variable2": "",
          "value2": "",
          "bookmark2": ""
        },
        "visualization": "swr-sense-navigation",
        "version": "0.5.8",
        "extensionMeta": {
          "translationKey": "",
          "icon": "puzzle",
          "iconChar": "g",
          "isLibraryItem": true,
          "visible": true,
          "name": "Sheet Navigation & Actions",
          "description": "Sense Sheet Navigation + Actions visualization extension for Qlik Sense.",
          "template": "swr-sense-navigation",
          "isThirdParty": true,
          "type": "visualization",
          "version": "0.5.8",
          "preview": "swr-sense-navigation.png",
          "author": "Stefan Walther",
          "license": "MIT",
          "homepage": "http://github.com/stefanwalther/sense-navigation",
          "keywords": "qlik-sense, visualization",
          "repository": "https://github.com/stefanwalther/sense-navigation",
          "dependencies": {
            "qlik-sense": ">=2.1.1"
          },
          "previewIconURL": "../extensions/swr-sense-navigation/swr-sense-navigation.png"
        }
      },
      "qChildren": []
    },
    {
      "qProperty": {
        "qInfo": {
          "qId": "869c3239-936d-4ea0-a2b1-114861ae8647",
          "qType": "swr-sense-navigation"
        },
        "qMetaDef": {},
        "showTitles": false,
        "title": "",
        "subtitle": "",
        "footnote": "",
        "showDetails": false,
        "props": {
          "buttonLabel": "Randomization analysis",
          "buttonStyle": "info",
          "fullWidth": true,
          "buttonAlign": "left",
          "buttonIcon": "",
          "action": "gotoSheet",
          "sheetId": "",
          "selectedSheet": "b5f6563f-dd71-45af-aef9-87d680d1f245",
          "selectedStory": "",
          "websiteUrl": "",
          "isActionsBefore": false,
          "actionBefore1": "none",
          "field1": "",
          "variable1": "",
          "value1": "",
          "bookmark1": "",
          "actionBefore2": "none",
          "field2": "",
          "variable2": "",
          "value2": "",
          "bookmark2": ""
        },
        "visualization": "swr-sense-navigation",
        "version": "0.5.8",
        "extensionMeta": {
          "translationKey": "",
          "icon": "puzzle",
          "iconChar": "g",
          "isLibraryItem": true,
          "visible": true,
          "name": "Sheet Navigation & Actions",
          "description": "Sense Sheet Navigation + Actions visualization extension for Qlik Sense.",
          "template": "swr-sense-navigation",
          "isThirdParty": true,
          "type": "visualization",
          "version": "0.5.8",
          "preview": "swr-sense-navigation.png",
          "author": "Stefan Walther",
          "license": "MIT",
          "homepage": "http://github.com/stefanwalther/sense-navigation",
          "keywords": "qlik-sense, visualization",
          "repository": "https://github.com/stefanwalther/sense-navigation",
          "dependencies": {
            "qlik-sense": ">=2.1.1"
          },
          "previewIconURL": "../extensions/swr-sense-navigation/swr-sense-navigation.png"
        }
      },
      "qChildren": []
    },
    {
      "qProperty": {
        "qInfo": {
          "qId": "91b7d92c-f170-4d3f-8935-58fe897bdc5a",
          "qType": "swr-sense-navigation"
        },
        "qMetaDef": {},
        "showTitles": false,
        "title": "",
        "subtitle": "",
        "footnote": "",
        "showDetails": false,
        "props": {
          "buttonLabel": "Inventories in extract",
          "buttonStyle": "info",
          "fullWidth": true,
          "buttonAlign": "left",
          "buttonIcon": "",
          "action": "gotoSheet",
          "sheetId": "",
          "selectedSheet": "51919931-3e60-4fba-9573-d1779a73b96a",
          "selectedStory": "",
          "websiteUrl": "",
          "isActionsBefore": false,
          "actionBefore1": "none",
          "field1": "",
          "variable1": "",
          "value1": "",
          "bookmark1": "",
          "actionBefore2": "none",
          "field2": "",
          "variable2": "",
          "value2": "",
          "bookmark2": ""
        },
        "visualization": "swr-sense-navigation",
        "version": "0.5.8",
        "extensionMeta": {
          "translationKey": "",
          "icon": "puzzle",
          "iconChar": "g",
          "isLibraryItem": true,
          "visible": true,
          "name": "Sheet Navigation & Actions",
          "description": "Sense Sheet Navigation + Actions visualization extension for Qlik Sense.",
          "template": "swr-sense-navigation",
          "isThirdParty": true,
          "type": "visualization",
          "version": "0.5.8",
          "preview": "swr-sense-navigation.png",
          "author": "Stefan Walther",
          "license": "MIT",
          "homepage": "http://github.com/stefanwalther/sense-navigation",
          "keywords": "qlik-sense, visualization",
          "repository": "https://github.com/stefanwalther/sense-navigation",
          "dependencies": {
            "qlik-sense": ">=2.1.1"
          },
          "previewIconURL": "../extensions/swr-sense-navigation/swr-sense-navigation.png"
        }
      },
      "qChildren": []
    },
    {
      "qProperty": {
        "qInfo": {
          "qId": "f322227b-33bd-4b45-ab9a-e02bcdcf0f55",
          "qType": "swr-sense-navigation"
        },
        "qMetaDef": {},
        "showTitles": false,
        "title": "",
        "subtitle": "",
        "footnote": "",
        "showDetails": false,
        "props": {
          "buttonLabel": "Depot shipments plan follow-up",
          "buttonStyle": "default",
          "fullWidth": true,
          "buttonAlign": "left",
          "buttonIcon": "",
          "action": "gotoSheet",
          "sheetId": "",
          "selectedSheet": "f5f0f1fe-a025-4492-926f-b60173733db9",
          "selectedStory": "",
          "websiteUrl": "",
          "isActionsBefore": false,
          "actionBefore1": "none",
          "field1": "",
          "variable1": "",
          "value1": "",
          "bookmark1": "",
          "actionBefore2": "none",
          "field2": "",
          "variable2": "",
          "value2": "",
          "bookmark2": ""
        },
        "visualization": "swr-sense-navigation",
        "version": "0.5.8",
        "extensionMeta": {
          "translationKey": "",
          "icon": "puzzle",
          "iconChar": "g",
          "isLibraryItem": true,
          "visible": true,
          "name": "Sheet Navigation & Actions",
          "description": "Sense Sheet Navigation + Actions visualization extension for Qlik Sense.",
          "template": "swr-sense-navigation",
          "isThirdParty": true,
          "type": "visualization",
          "version": "0.5.8",
          "preview": "swr-sense-navigation.png",
          "author": "Stefan Walther",
          "license": "MIT",
          "homepage": "http://github.com/stefanwalther/sense-navigation",
          "keywords": "qlik-sense, visualization",
          "repository": "https://github.com/stefanwalther/sense-navigation",
          "dependencies": {
            "qlik-sense": ">=2.1.1"
          },
          "previewIconURL": "../extensions/swr-sense-navigation/swr-sense-navigation.png"
        }
      },
      "qChildren": []
    },
    {
      "qProperty": {
        "qInfo": {
          "qId": "748ecc65-46df-410c-baf5-25381ab6374e",
          "qType": "table"
        },
        "qMetaDef": {},
        "qHyperCubeDef": {
          "qDimensions": [
            {
              "qDef": {
                "qGrouping": "N",
                "qFieldDefs": [
                  "=[Color Estimated]"
                ],
                "qFieldLabels": [
                  "Departure date is"
                ],
                "qSortCriterias": [
                  {
                    "qSortByNumeric": 1,
                    "qSortByAscii": 1,
                    "qSortByLoadOrder": 1,
                    "qExpression": {}
                  }
                ],
                "qNumberPresentations": [],
                "qActiveField": 0,
                "autoSort": true,
                "cId": "JdBPXd",
                "othersLabel": "Autres",
                "textAlign": {
                  "auto": true,
                  "align": "left"
                },
                "representation": {
                  "type": "text",
                  "urlLabel": ""
                }
              },
              "qNullSuppression": true,
              "qOtherTotalSpec": {
                "qOtherMode": "OTHER_OFF",
                "qOtherCounted": {
                  "qv": "10"
                },
                "qOtherLimit": {
                  "qv": "0"
                },
                "qOtherLimitMode": "OTHER_GE_LIMIT",
                "qForceBadValueKeeping": true,
                "qApplyEvenWhenPossiblyWrongResult": true,
                "qOtherSortMode": "OTHER_SORT_DESCENDING",
                "qTotalMode": "TOTAL_OFF",
                "qReferencedExpression": {}
              },
              "qOtherLabel": {
                "qv": "Autres"
              },
              "qTotalLabel": {},
              "qCalcCond": {},
              "qAttributeExpressions": [
                {
                  "qExpression": "If ( [Color Estimated] = 'In the past' , rgb(234,235,236)   // Grey\r\n\t, If ( [Color Estimated] = 'This week' , RGB(253,174,97) //Orange\n\t\t, If ( [Color Estimated] = 'In 8 days or more' , RGB(140,187,19) //Green \n)))\n\n\n",
                  "qAttribute": true,
                  "id": "cellBackgroundColor"
                }
              ],
              "qAttributeDimensions": [],
              "qCalcCondition": {
                "qCond": {},
                "qMsg": {}
              }
            },
            {
              "qDef": {
                "qGrouping": "N",
                "qFieldDefs": [
                  "=[Shipment name]\r\n"
                ],
                "qFieldLabels": [
                  "Shipment name"
                ],
                "qSortCriterias": [
                  {
                    "qSortByNumeric": 1,
                    "qSortByAscii": 1,
                    "qSortByLoadOrder": 1,
                    "qExpression": {}
                  }
                ],
                "qNumberPresentations": [],
                "qActiveField": 0,
                "autoSort": true,
                "cId": "ajDYep",
                "othersLabel": "Others",
                "textAlign": {
                  "auto": true,
                  "align": "left"
                },
                "representation": {
                  "type": "text",
                  "urlLabel": ""
                }
              },
              "qNullSuppression": true,
              "qOtherTotalSpec": {
                "qOtherMode": "OTHER_OFF",
                "qOtherCounted": {
                  "qv": "10"
                },
                "qOtherLimit": {
                  "qv": "0%"
                },
                "qOtherLimitMode": "OTHER_GT_LIMIT",
                "qSuppressOther": true,
                "qForceBadValueKeeping": true,
                "qApplyEvenWhenPossiblyWrongResult": true,
                "qOtherSortMode": "OTHER_SORT_DESCENDING",
                "qTotalMode": "TOTAL_OFF",
                "qReferencedExpression": {}
              },
              "qOtherLabel": {
                "qv": "Others"
              },
              "qTotalLabel": {},
              "qCalcCond": {},
              "qAttributeExpressions": [
                {
                  "qExpression": "If ( [Estimated generation date] < [Reevaluation date] , rgb(234,235,236) )",
                  "qAttribute": true,
                  "id": "cellBackgroundColor"
                }
              ],
              "qAttributeDimensions": [],
              "qCalcCondition": {
                "qCond": {},
                "qMsg": {}
              }
            },
            {
              "qDef": {
                "qGrouping": "N",
                "qFieldDefs": [
                  "=Destination"
                ],
                "qFieldLabels": [
                  "Destination"
                ],
                "qSortCriterias": [
                  {
                    "qSortByNumeric": 1,
                    "qSortByAscii": 1,
                    "qSortByLoadOrder": 1,
                    "qSortByExpression": 1,
                    "qExpression": {
                      "qv": "[Warehouse level]='Depots'"
                    }
                  }
                ],
                "qNumberPresentations": [],
                "qActiveField": 0,
                "autoSort": false,
                "cId": "aevm",
                "othersLabel": "Autres",
                "textAlign": {
                  "auto": true,
                  "align": "left"
                },
                "representation": {
                  "type": "text",
                  "urlLabel": ""
                }
              },
              "qNullSuppression": true,
              "qOtherTotalSpec": {
                "qOtherMode": "OTHER_OFF",
                "qOtherCounted": {
                  "qv": "10"
                },
                "qOtherLimit": {
                  "qv": "0"
                },
                "qOtherLimitMode": "OTHER_GE_LIMIT",
                "qForceBadValueKeeping": true,
                "qApplyEvenWhenPossiblyWrongResult": true,
                "qOtherSortMode": "OTHER_SORT_DESCENDING",
                "qTotalMode": "TOTAL_OFF",
                "qReferencedExpression": {}
              },
              "qOtherLabel": {
                "qv": "Autres"
              },
              "qTotalLabel": {},
              "qCalcCond": {},
              "qAttributeExpressions": [
                {
                  "qExpression": "If ( [Estimated generation date] < [Reevaluation date] , rgb(234,235,236) )",
                  "qAttribute": true,
                  "id": "cellBackgroundColor"
                }
              ],
              "qAttributeDimensions": [],
              "qCalcCondition": {
                "qCond": {},
                "qMsg": {}
              }
            },
            {
              "qDef": {
                "qGrouping": "N",
                "qFieldDefs": [
                  "= [Estimated generation date] "
                ],
                "qFieldLabels": [
                  "Estimated generation date"
                ],
                "qSortCriterias": [
                  {
                    "qSortByNumeric": 1,
                    "qSortByAscii": 1,
                    "qSortByLoadOrder": 1,
                    "qExpression": {}
                  }
                ],
                "qNumberPresentations": [],
                "qActiveField": 0,
                "autoSort": true,
                "cId": "mVReXp",
                "othersLabel": "Autres",
                "textAlign": {
                  "auto": true,
                  "align": "left"
                },
                "representation": {
                  "type": "text",
                  "urlLabel": ""
                }
              },
              "qNullSuppression": true,
              "qOtherTotalSpec": {
                "qOtherMode": "OTHER_OFF",
                "qOtherCounted": {
                  "qv": "10"
                },
                "qOtherLimit": {
                  "qv": "0"
                },
                "qOtherLimitMode": "OTHER_GE_LIMIT",
                "qForceBadValueKeeping": true,
                "qApplyEvenWhenPossiblyWrongResult": true,
                "qOtherSortMode": "OTHER_SORT_DESCENDING",
                "qTotalMode": "TOTAL_OFF",
                "qReferencedExpression": {}
              },
              "qOtherLabel": {
                "qv": "Autres"
              },
              "qTotalLabel": {},
              "qCalcCond": {},
              "qAttributeExpressions": [
                {
                  "qExpression": "If ( [Estimated generation date] < [Reevaluation date] , rgb(234,235,236) )",
                  "qAttribute": true,
                  "id": "cellBackgroundColor"
                }
              ],
              "qAttributeDimensions": [],
              "qCalcCondition": {
                "qCond": {},
                "qMsg": {}
              }
            },
            {
              "qDef": {
                "qGrouping": "N",
                "qFieldDefs": [
                  "=[Normal lead time]"
                ],
                "qFieldLabels": [
                  "Lead time"
                ],
                "qSortCriterias": [
                  {
                    "qSortByNumeric": 1,
                    "qSortByAscii": 1,
                    "qSortByLoadOrder": 1,
                    "qExpression": {}
                  }
                ],
                "qNumberPresentations": [],
                "qActiveField": 0,
                "autoSort": true,
                "cId": "HzYtp",
                "othersLabel": "Autres",
                "textAlign": {
                  "auto": true,
                  "align": "left"
                },
                "representation": {
                  "type": "text",
                  "urlLabel": ""
                }
              },
              "qOtherTotalSpec": {
                "qOtherMode": "OTHER_OFF",
                "qOtherCounted": {
                  "qv": "10"
                },
                "qOtherLimit": {
                  "qv": "0"
                },
                "qOtherLimitMode": "OTHER_GE_LIMIT",
                "qForceBadValueKeeping": true,
                "qApplyEvenWhenPossiblyWrongResult": true,
                "qOtherSortMode": "OTHER_SORT_DESCENDING",
                "qTotalMode": "TOTAL_OFF",
                "qReferencedExpression": {}
              },
              "qOtherLabel": {
                "qv": "Autres"
              },
              "qTotalLabel": {},
              "qCalcCond": {},
              "qAttributeExpressions": [
                {
                  "qExpression": "If ( [Estimated generation date] < [Reevaluation date] , rgb(234,235,236) )",
                  "qAttribute": true,
                  "id": "cellBackgroundColor"
                }
              ],
              "qAttributeDimensions": [],
              "qCalcCondition": {
                "qCond": {},
                "qMsg": {}
              }
            },
            {
              "qDef": {
                "qGrouping": "N",
                "qFieldDefs": [
                  "=[Arrival date]"
                ],
                "qFieldLabels": [
                  "Arrival date"
                ],
                "qSortCriterias": [
                  {
                    "qSortByNumeric": 1,
                    "qSortByAscii": 1,
                    "qSortByLoadOrder": 1,
                    "qExpression": {}
                  }
                ],
                "qNumberPresentations": [],
                "qActiveField": 0,
                "autoSort": true,
                "cId": "ePjReyw",
                "othersLabel": "Others",
                "textAlign": {
                  "auto": true,
                  "align": "left"
                },
                "representation": {
                  "type": "text",
                  "urlLabel": ""
                }
              },
              "qNullSuppression": true,
              "qOtherTotalSpec": {
                "qOtherMode": "OTHER_REL_LIMITED",
                "qOtherCounted": {
                  "qv": "10"
                },
                "qOtherLimit": {
                  "qv": "0%"
                },
                "qOtherLimitMode": "OTHER_GT_LIMIT",
                "qSuppressOther": true,
                "qForceBadValueKeeping": true,
                "qApplyEvenWhenPossiblyWrongResult": true,
                "qOtherSortMode": "OTHER_SORT_DESCENDING",
                "qTotalMode": "TOTAL_OFF",
                "qReferencedExpression": {}
              },
              "qOtherLabel": {
                "qv": "Others"
              },
              "qTotalLabel": {},
              "qCalcCond": {},
              "qAttributeExpressions": [
                {
                  "qExpression": "If ( [Estimated generation date] < [Reevaluation date] , rgb(234,235,236) )",
                  "qAttribute": true,
                  "id": "cellBackgroundColor"
                }
              ],
              "qAttributeDimensions": [],
              "qCalcCondition": {
                "qCond": {},
                "qMsg": {}
              }
            },
            {
              "qDef": {
                "qGrouping": "N",
                "qFieldDefs": [
                  "= [Package type]"
                ],
                "qFieldLabels": [
                  "Package type"
                ],
                "qSortCriterias": [
                  {
                    "qSortByNumeric": 1,
                    "qSortByAscii": 1,
                    "qSortByLoadOrder": 1,
                    "qExpression": {}
                  }
                ],
                "qNumberPresentations": [],
                "qActiveField": 0,
                "autoSort": true,
                "cId": "ZVYjXZS",
                "othersLabel": "Autres",
                "textAlign": {
                  "auto": true,
                  "align": "left"
                },
                "representation": {
                  "type": "text",
                  "urlLabel": ""
                }
              },
              "qNullSuppression": true,
              "qOtherTotalSpec": {
                "qOtherMode": "OTHER_OFF",
                "qOtherCounted": {
                  "qv": "10"
                },
                "qOtherLimit": {
                  "qv": "0"
                },
                "qOtherLimitMode": "OTHER_GE_LIMIT",
                "qForceBadValueKeeping": true,
                "qApplyEvenWhenPossiblyWrongResult": true,
                "qOtherSortMode": "OTHER_SORT_DESCENDING",
                "qTotalMode": "TOTAL_OFF",
                "qReferencedExpression": {}
              },
              "qOtherLabel": {
                "qv": "Autres"
              },
              "qTotalLabel": {},
              "qCalcCond": {},
              "qAttributeExpressions": [
                {
                  "qExpression": "If ( [Estimated generation date] < [Reevaluation date] , rgb(234,235,236) )\t",
                  "qAttribute": true,
                  "id": "cellBackgroundColor"
                }
              ],
              "qAttributeDimensions": [],
              "qCalcCondition": {
                "qCond": {},
                "qMsg": {}
              }
            },
            {
              "qDef": {
                "qGrouping": "N",
                "qFieldDefs": [
                  "Label group"
                ],
                "qFieldLabels": [
                  ""
                ],
                "qSortCriterias": [
                  {
                    "qSortByNumeric": 1,
                    "qSortByAscii": 1,
                    "qSortByLoadOrder": 1,
                    "qExpression": {}
                  }
                ],
                "qNumberPresentations": [],
                "qActiveField": 0,
                "autoSort": true,
                "cId": "MmDAL",
                "othersLabel": "Others",
                "textAlign": {
                  "auto": true,
                  "align": "left"
                },
                "representation": {
                  "type": "text",
                  "urlLabel": ""
                }
              },
              "qOtherTotalSpec": {
                "qOtherMode": "OTHER_OFF",
                "qOtherCounted": {
                  "qv": "10"
                },
                "qOtherLimit": {
                  "qv": "0"
                },
                "qOtherLimitMode": "OTHER_GE_LIMIT",
                "qForceBadValueKeeping": true,
                "qApplyEvenWhenPossiblyWrongResult": true,
                "qOtherSortMode": "OTHER_SORT_DESCENDING",
                "qTotalMode": "TOTAL_OFF",
                "qReferencedExpression": {}
              },
              "qOtherLabel": {
                "qv": "Others"
              },
              "qTotalLabel": {},
              "qCalcCond": {},
              "qAttributeExpressions": [
                {
                  "qExpression": "If ( [Estimated generation date] < [Reevaluation date] , rgb(234,235,236) )\t",
                  "qAttribute": true,
                  "id": "cellBackgroundColor"
                }
              ],
              "qAttributeDimensions": [],
              "qCalcCondition": {
                "qCond": {},
                "qMsg": {}
              }
            },
            {
              "qDef": {
                "qGrouping": "N",
                "qFieldDefs": [
                  "=[ValidUntil]"
                ],
                "qFieldLabels": [
                  "Expiry date"
                ],
                "qSortCriterias": [
                  {
                    "qSortByNumeric": 1,
                    "qSortByAscii": 1,
                    "qSortByLoadOrder": 1,
                    "qExpression": {}
                  }
                ],
                "qNumberPresentations": [],
                "qActiveField": 0,
                "autoSort": true,
                "cId": "MaqWk",
                "othersLabel": "Autres",
                "textAlign": {
                  "auto": true,
                  "align": "left"
                },
                "representation": {
                  "type": "text",
                  "urlLabel": ""
                }
              },
              "qNullSuppression": true,
              "qOtherTotalSpec": {
                "qOtherMode": "OTHER_OFF",
                "qOtherCounted": {
                  "qv": "10"
                },
                "qOtherLimit": {
                  "qv": "0"
                },
                "qOtherLimitMode": "OTHER_GE_LIMIT",
                "qForceBadValueKeeping": true,
                "qApplyEvenWhenPossiblyWrongResult": true,
                "qOtherSortMode": "OTHER_SORT_DESCENDING",
                "qTotalMode": "TOTAL_OFF",
                "qReferencedExpression": {}
              },
              "qOtherLabel": {
                "qv": "Autres"
              },
              "qTotalLabel": {},
              "qCalcCond": {},
              "qAttributeExpressions": [
                {
                  "qExpression": "If ( [Estimated generation date] < [Reevaluation date] , rgb(234,235,236) )",
                  "qAttribute": true,
                  "id": "cellBackgroundColor"
                }
              ],
              "qAttributeDimensions": [],
              "qCalcCondition": {
                "qCond": {},
                "qMsg": {}
              }
            }
          ],
          "qMeasures": [
            {
              "qDef": {
                "qLabel": "Suggested lot number",
                "qTags": [],
                "qGrouping": "N",
                "qDef": "=[Suggested lot number]",
                "qNumFormat": {
                  "qType": "U",
                  "qnDec": 10,
                  "qUseThou": 0
                },
                "qAggrFunc": "None",
                "qAccumulate": 0,
                "qActiveExpression": 0,
                "qExpressions": [],
                "autoSort": true,
                "cId": "uhbyaN",
                "numFormatFromTemplate": true,
                "textAlign": {
                  "auto": false,
                  "align": "right"
                }
              },
              "qSortBy": {
                "qSortByNumeric": -1,
                "qSortByLoadOrder": 1,
                "qExpression": {}
              },
              "qAttributeExpressions": [
                {
                  "qExpression": "If ( [Estimated generation date] < [Reevaluation date] , rgb(234,235,236) )\t",
                  "qAttribute": true,
                  "id": "cellBackgroundColor"
                }
              ],
              "qAttributeDimensions": [],
              "qCalcCond": {},
              "qCalcCondition": {
                "qCond": {},
                "qMsg": {}
              }
            },
            {
              "qDef": {
                "qLabel": "Quantity requested",
                "qTags": [],
                "qGrouping": "N",
                "qDef": "Sum([Quantity needed])",
                "qNumFormat": {
                  "qType": "U",
                  "qnDec": 10,
                  "qUseThou": 0
                },
                "qAggrFunc": "Expr",
                "qAccumulate": 0,
                "qActiveExpression": 0,
                "qExpressions": [],
                "autoSort": true,
                "cId": "jPJtSWb",
                "numFormatFromTemplate": true,
                "textAlign": {
                  "auto": true,
                  "align": "left"
                }
              },
              "qSortBy": {
                "qSortByNumeric": -1,
                "qSortByLoadOrder": 1,
                "qExpression": {}
              },
              "qAttributeExpressions": [
                {
                  "qExpression": "If ( [Estimated generation date] < [Reevaluation date] , rgb(234,235,236) )\t",
                  "qAttribute": true,
                  "id": "cellBackgroundColor"
                }
              ],
              "qAttributeDimensions": [],
              "qCalcCond": {},
              "qCalcCondition": {
                "qCond": {},
                "qMsg": {}
              }
            },
            {
              "qDef": {
                "qLabel": "Quantity shipped",
                "qTags": [],
                "qGrouping": "N",
                "qDef": "Sum([Quantity shipped])",
                "qNumFormat": {
                  "qType": "U",
                  "qnDec": 10,
                  "qUseThou": 0
                },
                "qAggrFunc": "Expr",
                "qAccumulate": 0,
                "qActiveExpression": 0,
                "qExpressions": [],
                "autoSort": true,
                "cId": "YyZZVa",
                "numFormatFromTemplate": true,
                "textAlign": {
                  "auto": true,
                  "align": "left"
                }
              },
              "qSortBy": {
                "qSortByNumeric": -1,
                "qSortByLoadOrder": 1,
                "qExpression": {}
              },
              "qAttributeExpressions": [
                {
                  "qExpression": "If ( [Estimated generation date] < [Reevaluation date] , rgb(234,235,236) )\t",
                  "qAttribute": true,
                  "id": "cellBackgroundColor"
                }
              ],
              "qAttributeDimensions": [],
              "qCalcCond": {},
              "qCalcCondition": {
                "qCond": {},
                "qMsg": {}
              }
            }
          ],
          "qInterColumnSortOrder": [
            3,
            2,
            1,
            5,
            6,
            8,
            0,
            4,
            9,
            10,
            11,
            7
          ],
          "qSuppressMissing": true,
          "qInitialDataFetch": [],
          "qReductionMode": "N",
          "qMode": "S",
          "qPseudoDimPos": -1,
          "qNoOfLeftDims": -1,
          "qMaxStackedCells": 5000,
          "qCalcCond": {
            "qv": "count([Shipment ID])>0"
          },
          "qTitle": {},
          "qCalcCondition": {
            "qCond": {
              "qv": "count([Shipment ID])>0"
            },
            "qMsg": {
              "qv": "='This table coud not be displayed as there are no depot shipments for this result'"
            }
          },
          "qColumnOrder": [
            0,
            1,
            2,
            3,
            4,
            5,
            6,
            7,
            9,
            8,
            10,
            11
          ],
          "columnOrder": [
            0,
            1,
            2,
            3,
            4,
            5,
            6,
            7,
            9,
            8,
            10,
            11
          ],
          "columnWidths": [
            49,
            -1,
            -1,
            63,
            51,
            71,
            56,
            75,
            -1,
            86,
            83,
            67
          ],
          "qLayoutExclude": {
            "qHyperCubeDef": {
              "qDimensions": [],
              "qMeasures": [],
              "qInterColumnSortOrder": [],
              "qInitialDataFetch": [],
              "qReductionMode": "N",
              "qMode": "S",
              "qPseudoDimPos": -1,
              "qNoOfLeftDims": -1,
              "qMaxStackedCells": 5000,
              "qCalcCond": {},
              "qTitle": {},
              "qCalcCondition": {
                "qCond": {},
                "qMsg": {}
              },
              "qColumnOrder": []
            }
          },
          "customErrorMessage": {
            "calcCond": ""
          }
        },
        "showTitles": false,
        "title": "Detailed inventories (depots only)",
        "subtitle": "",
        "footnote": "",
        "showDetails": false,
        "totals": {
          "show": true,
          "position": "noTotals",
          "label": "Totals"
        },
        "scrolling": {
          "keepFirstColumnInView": false,
          "horizontal": true
        },
        "multiline": {
          "wrapTextInHeaders": true,
          "wrapTextInCells": true
        },
        "visualization": "table"
      },
      "qChildren": []
    },
    {
      "qProperty": {
        "qInfo": {
          "qId": "4a243108-a692-42b8-b46d-b99c22cf4607",
          "qType": "filterpane"
        },
        "qMetaDef": {},
        "qChildListDef": {
          "qData": {
            "info": "/qInfo"
          }
        },
        "showTitles": false,
        "title": "",
        "subtitle": "",
        "footnote": "",
        "showDetails": false,
        "visualization": "filterpane"
      },
      "qChildren": [
        {
          "qProperty": {
            "qInfo": {
              "qId": "8eae3bfc-4134-4274-b075-88d5f68c8462",
              "qType": "listbox"
            },
            "qMetaDef": {},
            "qListObjectDef": {
              "qDef": {
                "qGrouping": "N",
                "qFieldDefs": [
                  "= [Package type] "
                ],
                "qFieldLabels": [
                  "= [Package type label] "
                ],
                "qSortCriterias": [
                  {
                    "qSortByState": 1,
                    "qSortByNumeric": 1,
                    "qSortByAscii": 1,
                    "qSortByLoadOrder": 1,
                    "qExpression": {}
                  }
                ],
                "qNumberPresentations": [],
                "qActiveField": 0,
                "autoSort": true,
                "cId": "qgDYJFu"
              },
              "qFrequencyMode": "N",
              "qShowAlternatives": true,
              "qInitialDataFetch": [],
              "qExpressions": [],
              "qOtherTotalSpec": {}
            },
            "showTitles": true,
            "title": "Package type",
            "subtitle": "",
            "footnote": "",
            "showDetails": false,
            "visualization": "listbox"
          },
          "qChildren": []
        }
      ]
    },
    {
      "qProperty": {
        "qInfo": {
          "qId": "efZqEp",
          "qType": "filterpane"
        },
        "qMetaDef": {},
        "qChildListDef": {
          "qData": {
            "info": "/qInfo"
          }
        },
        "showTitles": false,
        "title": "",
        "subtitle": "",
        "footnote": "",
        "showDetails": false,
        "visualization": "filterpane"
      },
      "qChildren": [
        {
          "qProperty": {
            "qInfo": {
              "qId": "8d4485d4-4016-4c74-9cf0-ebe95a3890fe",
              "qType": "listbox"
            },
            "qMetaDef": {},
            "qListObjectDef": {
              "qDef": {
                "qGrouping": "N",
                "qFieldDefs": [
                  "Destination"
                ],
                "qFieldLabels": [
                  "Destination label"
                ],
                "qSortCriterias": [
                  {
                    "qSortByState": 1,
                    "qSortByNumeric": 1,
                    "qSortByAscii": 1,
                    "qSortByLoadOrder": 1,
                    "qExpression": {}
                  }
                ],
                "qNumberPresentations": [],
                "qActiveField": 0,
                "autoSort": true,
                "cId": "mUyfyFr"
              },
              "qFrequencyMode": "N",
              "qShowAlternatives": true,
              "qInitialDataFetch": [],
              "qExpressions": [],
              "qOtherTotalSpec": {}
            },
            "showTitles": true,
            "title": "Destination",
            "subtitle": "",
            "footnote": "",
            "showDetails": false,
            "visualization": "listbox"
          },
          "qChildren": []
        }
      ]
    },
    {
      "qProperty": {
        "qInfo": {
          "qId": "PyZen",
          "qType": "filterpane"
        },
        "qMetaDef": {},
        "qChildListDef": {
          "qData": {
            "info": "/qInfo"
          }
        },
        "showTitles": false,
        "title": "",
        "subtitle": "",
        "footnote": "",
        "showDetails": false,
        "visualization": "filterpane"
      },
      "qChildren": [
        {
          "qProperty": {
            "qInfo": {
              "qId": "qLqe",
              "qType": "listbox"
            },
            "qMetaDef": {},
            "qListObjectDef": {
              "qDef": {
                "qGrouping": "N",
                "qFieldDefs": [
                  "= [Temperature type]"
                ],
                "qFieldLabels": [
                  "= [Temperature label]"
                ],
                "qSortCriterias": [
                  {
                    "qSortByState": 1,
                    "qSortByNumeric": 1,
                    "qSortByAscii": 1,
                    "qSortByLoadOrder": 1,
                    "qExpression": {}
                  }
                ],
                "qNumberPresentations": [],
                "qActiveField": 0,
                "autoSort": true,
                "cId": "Prbmms"
              },
              "qFrequencyMode": "N",
              "qShowAlternatives": true,
              "qInitialDataFetch": [],
              "qExpressions": [],
              "qOtherTotalSpec": {}
            },
            "showTitles": true,
            "title": "Temperature type",
            "subtitle": "",
            "footnote": "",
            "showDetails": false,
            "visualization": "listbox"
          },
          "qChildren": []
        }
      ]
    },
    {
      "qProperty": {
        "qInfo": {
          "qId": "MRJjR",
          "qType": "kpi"
        },
        "qMetaDef": {},
        "qHyperCubeDef": {
          "qDimensions": [],
          "qMeasures": [
            {
              "qDef": {
                "qTags": [],
                "qGrouping": "N",
                "qDef": "Only({1}[nb_shipment_depot])\r\n",
                "qNumFormat": {
                  "qType": "F",
                  "qnDec": 2,
                  "qUseThou": 0,
                  "qFmt": "#,##0",
                  "qDec": ".",
                  "qThou": ","
                },
                "qAccumulate": 0,
                "qActiveExpression": 0,
                "qExpressions": [],
                "qLabelExpression": "='#shipments departing this week'",
                "autoSort": true,
                "cId": "VELzh",
                "numFormatFromTemplate": true,
                "measureAxis": {
                  "min": 21961,
                  "max": 65883
                },
                "conditionalColoring": {
                  "useConditionalColoring": true,
                  "singleColor": 3,
                  "paletteSingleColor": {
                    "index": -1,
                    "color": "#00acc2"
                  },
                  "segments": {
                    "limits": [],
                    "paletteColors": [
                      {
                        "color": "#00acc2",
                        "index": -1
                      }
                    ]
                  },
                  "useBaseColors": true
                },
                "isCustomFormatted": false
              },
              "qSortBy": {
                "qSortByNumeric": -1,
                "qSortByLoadOrder": 1,
                "qExpression": {}
              },
              "qAttributeExpressions": [],
              "qAttributeDimensions": [],
              "qCalcCond": {},
              "qCalcCondition": {
                "qCond": {},
                "qMsg": {}
              }
            }
          ],
          "qInterColumnSortOrder": [
            0
          ],
          "qSuppressMissing": true,
          "qInitialDataFetch": [
            {
              "qLeft": 0,
              "qTop": 0,
              "qWidth": 500,
              "qHeight": 10
            }
          ],
          "qReductionMode": "N",
          "qMode": "S",
          "qPseudoDimPos": -1,
          "qNoOfLeftDims": -1,
          "qMaxStackedCells": 5000,
          "qCalcCond": {},
          "qTitle": {},
          "qCalcCondition": {
            "qCond": {},
            "qMsg": {
              "qv": "Please select a single Source File and a single Scenario in the Filter to display results."
            }
          },
          "qColumnOrder": [],
          "qLayoutExclude": {
            "qHyperCubeDef": {
              "qDimensions": [],
              "qMeasures": [],
              "qInterColumnSortOrder": [],
              "qInitialDataFetch": [],
              "qReductionMode": "N",
              "qMode": "S",
              "qPseudoDimPos": -1,
              "qNoOfLeftDims": -1,
              "qMaxStackedCells": 5000,
              "qCalcCond": {},
              "qTitle": {},
              "qCalcCondition": {
                "qCond": {},
                "qMsg": {}
              },
              "qColumnOrder": []
            }
          },
          "customErrorMessage": {
            "calcCond": "Please select a single Source File and a single Scenario in the Filter to display results."
          }
        },
        "showTitles": true,
        "title": "",
        "subtitle": "",
        "footnote": {
          "qStringExpression": {
            "qExpr": "'Upcoming 7 days'"
          }
        },
        "showDetails": false,
        "showMeasureTitle": true,
        "textAlign": "center",
        "fontSize": "M",
        "useLink": false,
        "sheetLink": "",
        "openUrlInNewTab": false,
        "visualization": "kpi",
        "color": {
          "useBaseColors": "measure"
        }
      },
      "qChildren": []
    },
    {
      "qProperty": {
        "qInfo": {
          "qId": "nNd",
          "qType": "kpi"
        },
        "qMetaDef": {},
        "qHyperCubeDef": {
          "qDimensions": [],
          "qMeasures": [
            {
              "qDef": {
                "qLabel": "Today",
                "qTags": [],
                "qGrouping": "N",
                "qDef": "Today()",
                "qNumFormat": {
                  "qType": "D",
                  "qnDec": 2,
                  "qUseThou": 0,
                  "qFmt": "DD-MMM-YY"
                },
                "qAccumulate": 0,
                "qActiveExpression": 0,
                "qExpressions": [],
                "autoSort": true,
                "cId": "VELzh",
                "numFormatFromTemplate": true,
                "measureAxis": {
                  "min": 21961,
                  "max": 65883
                },
                "conditionalColoring": {
                  "useConditionalColoring": true,
                  "singleColor": 3,
                  "paletteSingleColor": {
                    "index": -1,
                    "color": "#00acc2"
                  },
                  "segments": {
                    "limits": [],
                    "paletteColors": [
                      {
                        "color": "#00acc2",
                        "index": -1
                      }
                    ]
                  },
                  "useBaseColors": true
                },
                "isCustomFormatted": false
              },
              "qSortBy": {
                "qSortByNumeric": -1,
                "qSortByLoadOrder": 1,
                "qExpression": {}
              },
              "qAttributeExpressions": [],
              "qAttributeDimensions": [],
              "qCalcCond": {},
              "qCalcCondition": {
                "qCond": {},
                "qMsg": {}
              }
            }
          ],
          "qInterColumnSortOrder": [
            0
          ],
          "qSuppressMissing": true,
          "qInitialDataFetch": [
            {
              "qLeft": 0,
              "qTop": 0,
              "qWidth": 500,
              "qHeight": 10
            }
          ],
          "qReductionMode": "N",
          "qMode": "S",
          "qPseudoDimPos": -1,
          "qNoOfLeftDims": -1,
          "qMaxStackedCells": 5000,
          "qCalcCond": {},
          "qTitle": {},
          "qCalcCondition": {
            "qCond": {},
            "qMsg": {
              "qv": "Please select a single Source File and a single Scenario in the Filter to display results."
            }
          },
          "qColumnOrder": [],
          "qLayoutExclude": {
            "qHyperCubeDef": {
              "qDimensions": [],
              "qMeasures": [],
              "qInterColumnSortOrder": [],
              "qInitialDataFetch": [],
              "qReductionMode": "N",
              "qMode": "S",
              "qPseudoDimPos": -1,
              "qNoOfLeftDims": -1,
              "qMaxStackedCells": 5000,
              "qCalcCond": {},
              "qTitle": {},
              "qCalcCondition": {
                "qCond": {},
                "qMsg": {}
              },
              "qColumnOrder": []
            }
          },
          "customErrorMessage": {
            "calcCond": "Please select a single Source File and a single Scenario in the Filter to display results."
          }
        },
        "showTitles": true,
        "title": "",
        "subtitle": "",
        "footnote": {
          "qStringExpression": {
            "qExpr": "' '"
          }
        },
        "showDetails": false,
        "showMeasureTitle": true,
        "textAlign": "center",
        "fontSize": "M",
        "useLink": false,
        "sheetLink": "",
        "openUrlInNewTab": false,
        "visualization": "kpi",
        "color": {
          "useBaseColors": "measure"
        }
      },
      "qChildren": []
    },
    {
      "qProperty": {
        "qInfo": {
          "qId": "dcjGJXP",
          "qType": "kpi"
        },
        "qMetaDef": {},
        "qHyperCubeDef": {
          "qDimensions": [],
          "qMeasures": [
            {
              "qDef": {
                "qLabel": "Define new shipping plan before:",
                "qTags": [],
                "qGrouping": "N",
                "qDef": "Only({1}KPI_Earliest_departure)\r\n",
                "qNumFormat": {
                  "qType": "D",
                  "qnDec": 2,
                  "qUseThou": 0,
                  "qFmt": "DD-MMM-YYYY"
                },
                "qAccumulate": 0,
                "qActiveExpression": 0,
                "qExpressions": [],
                "autoSort": true,
                "cId": "VELzh",
                "numFormatFromTemplate": true,
                "measureAxis": {
                  "min": 21961,
                  "max": 65883
                },
                "conditionalColoring": {
                  "useConditionalColoring": true,
                  "singleColor": 3,
                  "paletteSingleColor": {
                    "index": -1,
                    "color": "#00acc2"
                  },
                  "segments": {
                    "limits": [],
                    "paletteColors": [
                      {
                        "color": "#00acc2",
                        "index": -1
                      }
                    ]
                  },
                  "useBaseColors": true
                },
                "isCustomFormatted": false
              },
              "qSortBy": {
                "qSortByNumeric": -1,
                "qSortByLoadOrder": 1,
                "qExpression": {}
              },
              "qAttributeExpressions": [],
              "qAttributeDimensions": [],
              "qCalcCond": {},
              "qCalcCondition": {
                "qCond": {},
                "qMsg": {}
              }
            }
          ],
          "qInterColumnSortOrder": [
            0
          ],
          "qSuppressMissing": true,
          "qInitialDataFetch": [
            {
              "qLeft": 0,
              "qTop": 0,
              "qWidth": 500,
              "qHeight": 10
            }
          ],
          "qReductionMode": "N",
          "qMode": "S",
          "qPseudoDimPos": -1,
          "qNoOfLeftDims": -1,
          "qMaxStackedCells": 5000,
          "qCalcCond": {},
          "qTitle": {},
          "qCalcCondition": {
            "qCond": {},
            "qMsg": {
              "qv": "Please select a single Source File and a single Scenario in the Filter to display results."
            }
          },
          "qColumnOrder": [],
          "qLayoutExclude": {
            "qHyperCubeDef": {
              "qDimensions": [],
              "qMeasures": [],
              "qInterColumnSortOrder": [],
              "qInitialDataFetch": [],
              "qReductionMode": "N",
              "qMode": "S",
              "qPseudoDimPos": -1,
              "qNoOfLeftDims": -1,
              "qMaxStackedCells": 5000,
              "qCalcCond": {},
              "qTitle": {},
              "qCalcCondition": {
                "qCond": {},
                "qMsg": {}
              },
              "qColumnOrder": []
            }
          },
          "customErrorMessage": {
            "calcCond": "Please select a single Source File and a single Scenario in the Filter to display results."
          }
        },
        "showTitles": true,
        "title": "",
        "subtitle": "",
        "footnote": "Earliest depot shipment re-order date",
        "showDetails": false,
        "showMeasureTitle": true,
        "textAlign": "center",
        "fontSize": "M",
        "useLink": false,
        "sheetLink": "",
        "openUrlInNewTab": false,
        "visualization": "kpi",
        "color": {
          "useBaseColors": "measure"
        }
      },
      "qChildren": []
    },
    {
      "qProperty": {
        "qInfo": {
          "qId": "AjEwkY",
          "qType": "kpi"
        },
        "qMetaDef": {},
        "qHyperCubeDef": {
          "qDimensions": [],
          "qMeasures": [
            {
              "qDef": {
                "qLabel": "Remaining time to review plan:",
                "qTags": [],
                "qGrouping": "N",
                "qDef": "If(\r\nlen(trim(Only({1}[KPI_Earliest_departure_overview]))) = 0\n        \t, 'No expected future depot shipments'\n,\nIf (\nNum(\nMin({1}[Earliest departure])\n-\nToday()\n) > 0 , \n(Num(\nMin({1}[Earliest departure])\n-\nToday()\n) & ' days' ), \n(FABS(\nNum(\nMin({1}[Earliest departure])\n-\nToday()\n)) & ' days overdue' \n)\n)\n)",
                "qNumFormat": {
                  "qType": "U",
                  "qnDec": 2,
                  "qUseThou": 0,
                  "qDec": ".",
                  "qThou": ","
                },
                "qAccumulate": 0,
                "qActiveExpression": 0,
                "qExpressions": [],
                "autoSort": true,
                "cId": "VELzh",
                "numFormatFromTemplate": true,
                "measureAxis": {
                  "min": 0.25,
                  "max": 0.75
                },
                "conditionalColoring": {
                  "useConditionalColoring": true,
                  "singleColor": 3,
                  "paletteSingleColor": {
                    "index": -1,
                    "color": "#00acc2"
                  },
                  "segments": {
                    "limits": [],
                    "paletteColors": [
                      {
                        "index": -1,
                        "color": "#00acc2"
                      }
                    ]
                  },
                  "useBaseColors": true
                },
                "isCustomFormatted": false
              },
              "qSortBy": {
                "qSortByNumeric": -1,
                "qSortByLoadOrder": 1,
                "qExpression": {}
              },
              "qAttributeExpressions": [],
              "qAttributeDimensions": [],
              "qCalcCond": {},
              "qCalcCondition": {
                "qCond": {},
                "qMsg": {}
              }
            }
          ],
          "qInterColumnSortOrder": [
            0
          ],
          "qSuppressMissing": true,
          "qInitialDataFetch": [
            {
              "qLeft": 0,
              "qTop": 0,
              "qWidth": 500,
              "qHeight": 10
            }
          ],
          "qReductionMode": "N",
          "qMode": "S",
          "qPseudoDimPos": -1,
          "qNoOfLeftDims": -1,
          "qMaxStackedCells": 5000,
          "qCalcCond": {},
          "qTitle": {},
          "qCalcCondition": {
            "qCond": {},
            "qMsg": {
              "qv": "Please select a single Source File and a single Scenario in the Filter to display results."
            }
          },
          "qColumnOrder": [],
          "qLayoutExclude": {
            "qHyperCubeDef": {
              "qDimensions": [],
              "qMeasures": [],
              "qInterColumnSortOrder": [],
              "qInitialDataFetch": [],
              "qReductionMode": "N",
              "qMode": "S",
              "qPseudoDimPos": -1,
              "qNoOfLeftDims": -1,
              "qMaxStackedCells": 5000,
              "qCalcCond": {},
              "qTitle": {},
              "qCalcCondition": {
                "qCond": {},
                "qMsg": {}
              },
              "qColumnOrder": []
            }
          },
          "customErrorMessage": {
            "calcCond": "Please select a single Source File and a single Scenario in the Filter to display results."
          }
        },
        "showTitles": true,
        "title": "",
        "subtitle": "",
        "footnote": {
          "qStringExpression": {
            "qExpr": "='Counting from today: ' & Today()"
          }
        },
        "showDetails": false,
        "showMeasureTitle": true,
        "textAlign": "center",
        "fontSize": "M",
        "useLink": false,
        "sheetLink": "",
        "openUrlInNewTab": false,
        "visualization": "kpi",
        "color": {
          "useBaseColors": "measure"
        }
      },
      "qChildren": []
    },
    {
      "qProperty": {
        "qInfo": {
          "qId": "cgUEQZf",
          "qType": "filterpane"
        },
        "qMetaDef": {},
        "qChildListDef": {
          "qData": {
            "info": "/qInfo"
          }
        },
        "showTitles": false,
        "title": "",
        "subtitle": "",
        "footnote": "",
        "showDetails": false,
        "visualization": "filterpane"
      },
      "qChildren": [
        {
          "qProperty": {
            "qInfo": {
              "qId": "hYNKtu",
              "qType": "listbox"
            },
            "qMetaDef": {},
            "qListObjectDef": {
              "qDef": {
                "qGrouping": "N",
                "qFieldDefs": [
                  "=[Suggested lot number ]"
                ],
                "qFieldLabels": [
                  "=[Suggested lot number ]"
                ],
                "qSortCriterias": [
                  {
                    "qSortByState": 1,
                    "qSortByNumeric": 1,
                    "qSortByAscii": 1,
                    "qSortByLoadOrder": 1,
                    "qExpression": {}
                  }
                ],
                "qNumberPresentations": [],
                "qActiveField": 0,
                "autoSort": true,
                "cId": "dYArvm"
              },
              "qFrequencyMode": "N",
              "qShowAlternatives": true,
              "qInitialDataFetch": [],
              "qExpressions": [],
              "qOtherTotalSpec": {}
            },
            "showTitles": true,
            "title": {
              "qStringExpression": {
                "qExpr": "'Suggested lot number'"
              }
            },
            "subtitle": "",
            "footnote": "",
            "showDetails": false,
            "visualization": "listbox"
          },
          "qChildren": []
        }
      ]
    },
    {
      "qProperty": {
        "qInfo": {
          "qId": "YCDDJbM",
          "qType": "filterpane"
        },
        "qMetaDef": {},
        "qChildListDef": {
          "qData": {
            "info": "/qInfo"
          }
        },
        "showTitles": false,
        "title": "",
        "subtitle": "",
        "footnote": "",
        "showDetails": false,
        "visualization": "filterpane"
      },
      "qChildren": [
        {
          "qProperty": {
            "qInfo": {
              "qId": "979aff37-c203-4567-8daa-16b5b2bfaf3b",
              "qType": "listbox"
            },
            "qMetaDef": {},
            "qListObjectDef": {
              "qDef": {
                "qGrouping": "N",
                "qFieldDefs": [
                  "Label group"
                ],
                "qFieldLabels": [
                  "Label group"
                ],
                "qSortCriterias": [
                  {
                    "qSortByState": 1,
                    "qSortByNumeric": 1,
                    "qSortByAscii": 1,
                    "qSortByLoadOrder": 1,
                    "qExpression": {}
                  }
                ],
                "qNumberPresentations": [],
                "qActiveField": 0,
                "autoSort": true,
                "cId": "VdcchN"
              },
              "qFrequencyMode": "N",
              "qShowAlternatives": true,
              "qInitialDataFetch": [],
              "qExpressions": [],
              "qOtherTotalSpec": {}
            },
            "showTitles": true,
            "title": "Label group",
            "subtitle": "",
            "footnote": "",
            "showDetails": false,
            "visualization": "listbox"
          },
          "qChildren": []
        }
      ]
    }
  ]
}