{
  "qProperty": {
    "qInfo": {
      "qId": "f83413b7-1900-46e3-9fa0-6cba359ff37a",
      "qType": "sheet"
    },
    "qMetaDef": {
      "title": "Glossary",
      "description": ""
    },
    "rank": 8,
    "thumbnail": {
      "qStaticContentUrlDef": {
        "qUrl": "/appcontent/47d9b58b-9f1a-42fb-b391-25c4f2464e62/IRT settings-04.jpg"
      }
    },
    "columns": 24,
    "rows": 12,
    "cells": [
      {
        "name": "5836503e-d24e-4fa1-9c78-b9fc26a013fb",
        "type": "swr-sense-navigation",
        "col": 0,
        "row": 11,
        "colspan": 4,
        "rowspan": 1,
        "bounds": {
          "y": 91.66666666666666,
          "x": 0,
          "width": 16.666666666666664,
          "height": 8.333333333333332
        }
      },
      {
        "name": "AWcgGY",
        "type": "swr-sense-navigation",
        "col": 4,
        "row": 11,
        "colspan": 4,
        "rowspan": 1,
        "bounds": {
          "y": 91.66666666666666,
          "x": 16.666666666666664,
          "width": 16.666666666666664,
          "height": 8.333333333333332
        }
      },
      {
        "name": "85c05442-eb9a-4c9e-aaf3-405f8b543f2d",
        "type": "swr-sense-navigation",
        "col": 8,
        "row": 11,
        "colspan": 4,
        "rowspan": 1,
        "bounds": {
          "y": 91.66666666666666,
          "x": 33.33333333333333,
          "width": 16.666666666666664,
          "height": 8.333333333333332
        }
      },
      {
        "name": "5fa37b58-f196-4825-a527-d81df9445b3d",
        "type": "swr-sense-navigation",
        "col": 12,
        "row": 11,
        "colspan": 4,
        "rowspan": 1,
        "bounds": {
          "y": 91.66666666666666,
          "x": 50,
          "width": 16.666666666666664,
          "height": 8.333333333333332
        }
      },
      {
        "name": "gpYMzhC",
        "type": "swr-sense-navigation",
        "col": 16,
        "row": 11,
        "colspan": 4,
        "rowspan": 1,
        "bounds": {
          "y": 91.66666666666666,
          "x": 66.66666666666666,
          "width": 16.666666666666664,
          "height": 8.333333333333332
        }
      },
      {
        "name": "uDXmBA",
        "type": "text-image",
        "col": 4,
        "row": 0,
        "colspan": 16,
        "rowspan": 11,
        "bounds": {
          "y": 0,
          "x": 16.666666666666664,
          "width": 66.66666666666666,
          "height": 91.66666666666666
        }
      },
      {
        "name": "nRAAeWe",
        "type": "table",
        "col": 21,
        "row": 0,
        "colspan": 3,
        "rowspan": 5,
        "bounds": {
          "y": 0,
          "x": 87.5,
          "width": 12.5,
          "height": 41.66666666666667
        }
      },
      {
        "name": "NDFP",
        "type": "swr-sense-navigation",
        "col": 20,
        "row": 11,
        "colspan": 4,
        "rowspan": 1,
        "bounds": {
          "y": 91.66666666666666,
          "x": 83.33333333333334,
          "width": 16.666666666666664,
          "height": 8.333333333333332
        }
      }
    ],
    "qChildListDef": {
      "qData": {
        "title": "/title"
      }
    },
    "gridResolution": "small"
  },
  "qChildren": [
    {
      "qProperty": {
        "qInfo": {
          "qId": "5836503e-d24e-4fa1-9c78-b9fc26a013fb",
          "qType": "swr-sense-navigation"
        },
        "qMetaDef": {},
        "showTitles": false,
        "title": "",
        "subtitle": "",
        "footnote": "",
        "showDetails": false,
        "props": {
          "buttonLabel": "Welcome",
          "buttonStyle": "primary",
          "fullWidth": true,
          "buttonAlign": "left",
          "buttonIcon": "",
          "action": "gotoSheet",
          "sheetId": "",
          "selectedSheet": "5c03ee6a-cd5c-448b-b413-0ccd7a0707b3",
          "selectedStory": "",
          "websiteUrl": "",
          "isActionsBefore": false,
          "actionBefore1": "none",
          "field1": "",
          "variable1": "",
          "value1": "",
          "bookmark1": "",
          "actionBefore2": "none",
          "field2": "",
          "variable2": "",
          "value2": "",
          "bookmark2": ""
        },
        "visualization": "swr-sense-navigation",
        "version": "0.5.8",
        "extensionMeta": {
          "translationKey": "",
          "icon": "puzzle",
          "iconChar": "g",
          "isLibraryItem": true,
          "visible": true,
          "name": "Sheet Navigation & Actions",
          "description": "Sense Sheet Navigation + Actions visualization extension for Qlik Sense.",
          "template": "swr-sense-navigation",
          "isThirdParty": true,
          "type": "visualization",
          "version": "0.5.8",
          "preview": "swr-sense-navigation.png",
          "author": "Stefan Walther",
          "license": "MIT",
          "homepage": "http://github.com/stefanwalther/sense-navigation",
          "keywords": "qlik-sense, visualization",
          "repository": "https://github.com/stefanwalther/sense-navigation",
          "dependencies": {
            "qlik-sense": ">=2.1.1"
          },
          "previewIconURL": "../extensions/swr-sense-navigation/swr-sense-navigation.png"
        }
      },
      "qChildren": []
    },
    {
      "qProperty": {
        "qInfo": {
          "qId": "uDXmBA",
          "qType": "text-image"
        },
        "qMetaDef": {},
        "qHyperCubeDef": {
          "qDimensions": [],
          "qMeasures": [],
          "qInterColumnSortOrder": [],
          "qInitialDataFetch": [],
          "qReductionMode": "N",
          "qMode": "S",
          "qPseudoDimPos": -1,
          "qNoOfLeftDims": -1,
          "qMaxStackedCells": 5000,
          "qCalcCond": {},
          "qTitle": {},
          "qCalcCondition": {
            "qCond": {},
            "qMsg": {}
          },
          "qColumnOrder": [],
          "qLayoutExclude": {
            "qHyperCubeDef": {
              "qDimensions": [],
              "qMeasures": [],
              "qInterColumnSortOrder": [],
              "qInitialDataFetch": [],
              "qReductionMode": "N",
              "qMode": "S",
              "qPseudoDimPos": -1,
              "qNoOfLeftDims": -1,
              "qMaxStackedCells": 5000,
              "qCalcCond": {},
              "qTitle": {},
              "qCalcCondition": {
                "qCond": {},
                "qMsg": {}
              },
              "qColumnOrder": []
            }
          }
        },
        "showTitles": false,
        "title": "",
        "subtitle": "",
        "footnote": "",
        "showDetails": false,
        "responsive": "all",
        "markdown": "^[^[#[**Per package dispensing forecast accuracy:** ](3)this indicator is the real number of packages dispensed divided by the average number of packages dispensed from the simulation forecasts since the simulation start date. It represents the percentage of kits dispensed in reality in comparison to what was expected on average for the time between the simulation start date and the extract date.^[\n](inherit)^[**#[Global dispensing forecast accuracy: ](3)**this indicator is the average of all _Per package dispensing forecast accuracy_. The color indicator turns **red** when there is a 15% gap compared to the forecasts, it is **orange** when the gap ranges between 10% and 15%, and it is **green** if the gap is smaller than 10%.\n^[\n](inherit)^[#[**Randomization timing:** ](3)this indicator turns **red** with a ▲ icon when the real #patients randomized is higher than the maximum #patients expected to be randomized or with a ▼ icon when the real #patients randomized is lower than the minimum #patients expected to be randomized during the monitored week. It turns **orange** with a ▲ icon when the real #patients exceeds the daily expected max \\(evolves at a faster trend\\) or with a ▼ icon when the real #patients falls behind the min expected randomization trend for the monitored day. It is **green **with a **○** icon only when the real #patients randomized is between the daily estimated bounds. Note that the global #patients randomized is different than the sum of all min or max #patients randomized per depot.](inherit)^[\n](inherit)^[#[**Randomization location:** ](3)this indicator turns **red** with a ▲ **or** ▼ icon when there is at least one depot out of bound in terms of patient recruitment. It turns **red** and displays both types of deviation icons \\(▲▼\\) when there is at least one depot over **and** at least one depot under in terms of patient recruitment. It turns **orange** with a ▲ **or** ▼ icon when there is at least one depot in warning. It turns **orange **and displays both types of deviation icons \\(▲▼\\) when there is at least one depot with a faster trend **and** at least one depot with a slower trend in terms of patient recruitment. Finally, it is **green** with a **○** icon when all depots are within bounds.](inherit)^[\n](inherit)^[#[**Screening failure:** ](3)this indicator is the real screening failure rate divided by the screening failure rate observed in simulations. The color indicator turns **red** when there is a 15% gap compared to the forecasts, it is **orange** when the gap ranges between 10% and 15%, and it is **green** if the gap is smaller than 10%.\n](inherit)^[\n](inherit)^[**#[Drop\\-out, weight\\-range, Dose levels/titrations:](3) **these indicators are not yet computed in the dashboard but inform about the importance to check the given parameter for a trial. The relevance of those parameters should be defined in the trial master data in the N\\-SIDE Supply app.\n](inherit)^[\n](inherit)^[**#[# depot shipments departing this week:](3)**#[ this is the number of shipment to depots that have an estimated departure data sometime **during the next 7 days**.]({\"index\":-1,\"color\":\"#172b4d\"})](inherit)^[#[\n]({\"index\":-1,\"color\":\"#172b4d\"})](inherit)^[**#[Define new depot shipments plan before:](3)**#[ this date corresponds to the **earliest departure date** for depot shipments as forecasted by considering what has already been planned to cover short term needs. This is a good indicator of the need to run new simulations and define a new depot shipment plan.]({\"index\":-1,\"color\":\"#172b4d\"})](inherit)^[\n](inherit)^[**#[First patient in: ](3)**this indicator corresponds to the date of the first randomization. If there is no randomization in the trial then it corresponds to the date when the first patient was screened.](inherit)^[\n](inherit)^[**#[Last patient in: ](3)**this indicator corresponds to the date of the last randomization. If there is no randomization in the trial then it corresponds to the date when the last patient was screened.\n](inherit)^[\n](inherit)](inherit)](inherit)](inherit)",
        "images": [],
        "background": {
          "isUsed": false,
          "size": "auto",
          "position": "topLeft",
          "url": {}
        },
        "visualization": "text-image"
      },
      "qChildren": []
    },
    {
      "qProperty": {
        "qInfo": {
          "qId": "85c05442-eb9a-4c9e-aaf3-405f8b543f2d",
          "qType": "swr-sense-navigation"
        },
        "qMetaDef": {},
        "showTitles": false,
        "title": "",
        "subtitle": "",
        "footnote": "",
        "showDetails": false,
        "props": {
          "buttonLabel": "Dispensing analysis",
          "buttonStyle": "info",
          "fullWidth": true,
          "buttonAlign": "left",
          "buttonIcon": "",
          "action": "gotoSheet",
          "sheetId": "",
          "selectedSheet": "f74e4507-c811-4033-8cdf-efd423214bad",
          "selectedStory": "",
          "websiteUrl": "",
          "isActionsBefore": false,
          "actionBefore1": "none",
          "field1": "",
          "variable1": "",
          "value1": "",
          "bookmark1": "",
          "actionBefore2": "none",
          "field2": "",
          "variable2": "",
          "value2": "",
          "bookmark2": ""
        },
        "visualization": "swr-sense-navigation",
        "version": "0.5.8",
        "extensionMeta": {
          "translationKey": "",
          "icon": "puzzle",
          "iconChar": "g",
          "isLibraryItem": true,
          "visible": true,
          "name": "Sheet Navigation & Actions",
          "description": "Sense Sheet Navigation + Actions visualization extension for Qlik Sense.",
          "template": "swr-sense-navigation",
          "isThirdParty": true,
          "type": "visualization",
          "version": "0.5.8",
          "preview": "swr-sense-navigation.png",
          "author": "Stefan Walther",
          "license": "MIT",
          "homepage": "http://github.com/stefanwalther/sense-navigation",
          "keywords": "qlik-sense, visualization",
          "repository": "https://github.com/stefanwalther/sense-navigation",
          "dependencies": {
            "qlik-sense": ">=2.1.1"
          },
          "previewIconURL": "../extensions/swr-sense-navigation/swr-sense-navigation.png"
        }
      },
      "qChildren": []
    },
    {
      "qProperty": {
        "qInfo": {
          "qId": "5fa37b58-f196-4825-a527-d81df9445b3d",
          "qType": "swr-sense-navigation"
        },
        "qMetaDef": {},
        "showTitles": false,
        "title": "",
        "subtitle": "",
        "footnote": "",
        "showDetails": false,
        "props": {
          "buttonLabel": "Randomization analysis",
          "buttonStyle": "info",
          "fullWidth": true,
          "buttonAlign": "left",
          "buttonIcon": "",
          "action": "gotoSheet",
          "sheetId": "",
          "selectedSheet": "b5f6563f-dd71-45af-aef9-87d680d1f245",
          "selectedStory": "",
          "websiteUrl": "",
          "isActionsBefore": false,
          "actionBefore1": "none",
          "field1": "",
          "variable1": "",
          "value1": "",
          "bookmark1": "",
          "actionBefore2": "none",
          "field2": "",
          "variable2": "",
          "value2": "",
          "bookmark2": ""
        },
        "visualization": "swr-sense-navigation",
        "version": "0.5.8",
        "extensionMeta": {
          "translationKey": "",
          "icon": "puzzle",
          "iconChar": "g",
          "isLibraryItem": true,
          "visible": true,
          "name": "Sheet Navigation & Actions",
          "description": "Sense Sheet Navigation + Actions visualization extension for Qlik Sense.",
          "template": "swr-sense-navigation",
          "isThirdParty": true,
          "type": "visualization",
          "version": "0.5.8",
          "preview": "swr-sense-navigation.png",
          "author": "Stefan Walther",
          "license": "MIT",
          "homepage": "http://github.com/stefanwalther/sense-navigation",
          "keywords": "qlik-sense, visualization",
          "repository": "https://github.com/stefanwalther/sense-navigation",
          "dependencies": {
            "qlik-sense": ">=2.1.1"
          },
          "previewIconURL": "../extensions/swr-sense-navigation/swr-sense-navigation.png"
        }
      },
      "qChildren": []
    },
    {
      "qProperty": {
        "qInfo": {
          "qId": "AWcgGY",
          "qType": "swr-sense-navigation"
        },
        "qMetaDef": {},
        "showTitles": false,
        "title": "",
        "subtitle": "",
        "footnote": "",
        "showDetails": false,
        "props": {
          "buttonLabel": "Overview",
          "buttonStyle": "info",
          "fullWidth": true,
          "buttonAlign": "left",
          "buttonIcon": "",
          "action": "gotoSheet",
          "sheetId": "",
          "selectedSheet": "ddcbdf0d-9227-404e-988b-cfd597afa362",
          "selectedStory": "",
          "websiteUrl": "",
          "isActionsBefore": false,
          "actionBefore1": "none",
          "field1": "",
          "variable1": "",
          "value1": "",
          "bookmark1": "",
          "actionBefore2": "none",
          "field2": "",
          "variable2": "",
          "value2": "",
          "bookmark2": ""
        },
        "visualization": "swr-sense-navigation",
        "version": "0.5.8",
        "extensionMeta": {
          "translationKey": "",
          "icon": "puzzle",
          "iconChar": "g",
          "isLibraryItem": true,
          "visible": true,
          "name": "Sheet Navigation & Actions",
          "description": "Sense Sheet Navigation + Actions visualization extension for Qlik Sense.",
          "template": "swr-sense-navigation",
          "isThirdParty": true,
          "type": "visualization",
          "version": "0.5.8",
          "preview": "swr-sense-navigation.png",
          "author": "Stefan Walther",
          "license": "MIT",
          "homepage": "http://github.com/stefanwalther/sense-navigation",
          "keywords": "qlik-sense, visualization",
          "repository": "https://github.com/stefanwalther/sense-navigation",
          "dependencies": {
            "qlik-sense": ">=2.1.1"
          },
          "previewIconURL": "../extensions/swr-sense-navigation/swr-sense-navigation.png"
        }
      },
      "qChildren": []
    },
    {
      "qProperty": {
        "qInfo": {
          "qId": "gpYMzhC",
          "qType": "swr-sense-navigation"
        },
        "qMetaDef": {},
        "showTitles": false,
        "title": "",
        "subtitle": "",
        "footnote": "",
        "showDetails": false,
        "props": {
          "buttonLabel": "Inventories in extract",
          "buttonStyle": "info",
          "fullWidth": true,
          "buttonAlign": "left",
          "buttonIcon": "",
          "action": "gotoSheet",
          "sheetId": "",
          "selectedSheet": "51919931-3e60-4fba-9573-d1779a73b96a",
          "selectedStory": "",
          "websiteUrl": "",
          "isActionsBefore": false,
          "actionBefore1": "none",
          "field1": "",
          "variable1": "",
          "value1": "",
          "bookmark1": "",
          "actionBefore2": "none",
          "field2": "",
          "variable2": "",
          "value2": "",
          "bookmark2": ""
        },
        "visualization": "swr-sense-navigation",
        "version": "0.5.8",
        "extensionMeta": {
          "translationKey": "",
          "icon": "puzzle",
          "iconChar": "g",
          "isLibraryItem": true,
          "visible": true,
          "name": "Sheet Navigation & Actions",
          "description": "Sense Sheet Navigation + Actions visualization extension for Qlik Sense.",
          "template": "swr-sense-navigation",
          "isThirdParty": true,
          "type": "visualization",
          "version": "0.5.8",
          "preview": "swr-sense-navigation.png",
          "author": "Stefan Walther",
          "license": "MIT",
          "homepage": "http://github.com/stefanwalther/sense-navigation",
          "keywords": "qlik-sense, visualization",
          "repository": "https://github.com/stefanwalther/sense-navigation",
          "dependencies": {
            "qlik-sense": ">=2.1.1"
          },
          "previewIconURL": "../extensions/swr-sense-navigation/swr-sense-navigation.png"
        }
      },
      "qChildren": []
    },
    {
      "qProperty": {
        "qInfo": {
          "qId": "nRAAeWe",
          "qType": "table"
        },
        "qMetaDef": {},
        "qHyperCubeDef": {
          "qDimensions": [
            {
              "qDef": {
                "qGrouping": "N",
                "qFieldDefs": [
                  "=[Overview_Icon]"
                ],
                "qFieldLabels": [
                  "Color legend"
                ],
                "qSortCriterias": [
                  {
                    "qSortByLoadOrder": 1,
                    "qSortByExpression": 1,
                    "qExpression": {
                      "qv": "Overview.Icon_No"
                    }
                  }
                ],
                "qNumberPresentations": [],
                "qActiveField": 0,
                "autoSort": false,
                "cId": "JzVmhU",
                "othersLabel": "Autres",
                "textAlign": {
                  "auto": true,
                  "align": "left"
                },
                "representation": {
                  "type": "text",
                  "urlLabel": ""
                }
              },
              "qNullSuppression": true,
              "qOtherTotalSpec": {
                "qOtherMode": "OTHER_OFF",
                "qOtherCounted": {
                  "qv": "10"
                },
                "qOtherLimit": {
                  "qv": "0"
                },
                "qOtherLimitMode": "OTHER_GE_LIMIT",
                "qForceBadValueKeeping": true,
                "qApplyEvenWhenPossiblyWrongResult": true,
                "qOtherSortMode": "OTHER_SORT_DESCENDING",
                "qTotalMode": "TOTAL_OFF",
                "qReferencedExpression": {}
              },
              "qOtherLabel": {
                "qv": "Autres"
              },
              "qTotalLabel": {},
              "qCalcCond": {},
              "qAttributeExpressions": [
                {
                  "qExpression": "      if( Only( {1} Overview_Icon) = '▲ Over recruitment'\r\n     ,RGB(215,25,28)//Red\n     ,if( Only( {1} Overview_Icon) = '▼ Under recruitment'\n     ,RGB(215,25,28)//Red\n     ,if( Only( {1} Overview_Icon) = '○ Within bounds'\n     ,RGB(140,187,19) //Green\n     \t\n        ,if( Only( {1} Overview_Icon) = '▲ Faster trend'\n        ,RGB(253,174,97) //Orange\n        ,if( Only( {1} Overview_Icon) = '▼ Slower trend'\n        ,RGB(253,174,97) //Orange\n        ,if( Only( {1} Overview_Icon) = 'Important input of Supply/Demand'\n        , RGB(128,128,128) //Dark grey   \n        \n        \t,if( Only( {1} Overview_Icon) = 'Not relevant'\n            , RGB(234, 235, 236) // Light grey\n        )))))))\n        \n      //** A table has been created on back-end to color the field [E_Local_Icon] **// \n      \n /*               \n      if( Only( {1} Overview_Icon) = '▲ ▼ Out of bounds'\n     ,RGB(215,25,28)//Red\n     ,if( Only( {1} Overview_Icon) = 'On track'\n     ,RGB(140,187,19) //Green\n     \t\n        ,if( Only( {1} Overview_Icon) = '▲ ▼ Warning'\n        ,RGB(253,174,97) //Orange\n        ,if( Only( {1} Overview_Icon) = 'Important input of Supply/Demand'\n        , RGB(128,128,128) //Dark grey   \n        \n        \t,if( Only( {1} Overview_Icon) = 'Not relevant'\n            , RGB(234, 235, 236) // Light grey\n        )))))\n    */    \n      //** A table has been created on back-end to color the field [E_Local_Icon] **// \n    ",
                  "qAttribute": true,
                  "id": "cellBackgroundColor"
                },
                {
                  "qExpression": "if( Only( {1} Overview_Icon) = 'Important input of Supply/Demand'\r\n        , RGB(255,255,255) ) // White",
                  "qAttribute": true,
                  "id": "cellForegroundColor"
                }
              ],
              "qAttributeDimensions": [],
              "qCalcCondition": {
                "qCond": {},
                "qMsg": {}
              }
            }
          ],
          "qMeasures": [],
          "qInterColumnSortOrder": [
            0
          ],
          "qSuppressMissing": true,
          "qInitialDataFetch": [],
          "qReductionMode": "N",
          "qMode": "S",
          "qPseudoDimPos": -1,
          "qNoOfLeftDims": -1,
          "qMaxStackedCells": 5000,
          "qCalcCond": {},
          "qTitle": {},
          "qCalcCondition": {
            "qCond": {},
            "qMsg": {}
          },
          "qColumnOrder": [
            0
          ],
          "columnOrder": [
            0
          ],
          "columnWidths": [
            183
          ],
          "qLayoutExclude": {
            "qHyperCubeDef": {
              "qDimensions": [],
              "qMeasures": [],
              "qInterColumnSortOrder": [],
              "qInitialDataFetch": [],
              "qReductionMode": "N",
              "qMode": "S",
              "qPseudoDimPos": -1,
              "qNoOfLeftDims": -1,
              "qMaxStackedCells": 5000,
              "qCalcCond": {},
              "qTitle": {},
              "qCalcCondition": {
                "qCond": {},
                "qMsg": {}
              },
              "qColumnOrder": []
            }
          }
        },
        "showTitles": false,
        "title": "",
        "subtitle": "",
        "footnote": "",
        "showDetails": false,
        "totals": {
          "show": false,
          "position": "noTotals",
          "label": ""
        },
        "scrolling": {
          "keepFirstColumnInView": true,
          "horizontal": false
        },
        "multiline": {
          "wrapTextInHeaders": true,
          "wrapTextInCells": true
        },
        "visualization": "table"
      },
      "qChildren": []
    },
    {
      "qProperty": {
        "qInfo": {
          "qId": "NDFP",
          "qType": "swr-sense-navigation"
        },
        "qMetaDef": {},
        "showTitles": false,
        "title": "",
        "subtitle": "",
        "footnote": "",
        "showDetails": false,
        "props": {
          "buttonLabel": "Depot shipments plan follow-up",
          "buttonStyle": "info",
          "fullWidth": true,
          "buttonAlign": "left",
          "buttonIcon": "",
          "action": "gotoSheet",
          "sheetId": "",
          "selectedSheet": "197832a8-e697-4971-9cd9-434a797c90e5",
          "selectedStory": "",
          "websiteUrl": "",
          "isActionsBefore": false,
          "actionBefore1": "none",
          "field1": "",
          "variable1": "",
          "value1": "",
          "bookmark1": "",
          "actionBefore2": "none",
          "field2": "",
          "variable2": "",
          "value2": "",
          "bookmark2": ""
        },
        "visualization": "swr-sense-navigation",
        "version": "0.5.8",
        "extensionMeta": {
          "translationKey": "",
          "icon": "puzzle",
          "iconChar": "g",
          "isLibraryItem": true,
          "visible": true,
          "name": "Sheet Navigation & Actions",
          "description": "Sense Sheet Navigation + Actions visualization extension for Qlik Sense.",
          "template": "swr-sense-navigation",
          "isThirdParty": true,
          "type": "visualization",
          "version": "0.5.8",
          "preview": "swr-sense-navigation.png",
          "author": "Stefan Walther",
          "license": "MIT",
          "homepage": "http://github.com/stefanwalther/sense-navigation",
          "keywords": "qlik-sense, visualization",
          "repository": "https://github.com/stefanwalther/sense-navigation",
          "dependencies": {
            "qlik-sense": ">=2.1.1"
          },
          "previewIconURL": "../extensions/swr-sense-navigation/swr-sense-navigation.png"
        }
      },
      "qChildren": []
    }
  ]
}